^E:\CONSOLE-RPG\CONSOLE-RPG\CONSOLE-RPG\CONSOLE-RPG\ZOMBIE.CPP
E:\CONSOLE-RPG\CONSOLE-RPG\CONSOLE-RPG\CONSOLE-RPG\ZOMBIE.H
E:\CONSOLE-RPG\CONSOLE-RPG\CONSOLE-RPG\CONSOLE-RPG\MONSTER.H
E:\PROGRAMS\VISUAL-STUDIO\VC\TOOLS\MSVC\14.11.25503\INCLUDE\STRING
E:\PROGRAMS\VISUAL-STUDIO\VC\TOOLS\MSVC\14.11.25503\INCLUDE\ISTREAM
E:\PROGRAMS\VISUAL-STUDIO\VC\TOOLS\MSVC\14.11.25503\INCLUDE\OSTREAM
E:\PROGRAMS\VISUAL-STUDIO\VC\TOOLS\MSVC\14.11.25503\INCLUDE\IOS
E:\PROGRAMS\VISUAL-STUDIO\VC\TOOLS\MSVC\14.11.25503\INCLUDE\XLOCNUM
E:\PROGRAMS\VISUAL-STUDIO\VC\TOOLS\MSVC\14.11.25503\INCLUDE\CLIMITS
E:\PROGRAMS\VISUAL-STUDIO\VC\TOOLS\MSVC\14.11.25503\INCLUDE\YVALS.H
E:\PROGRAMS\VISUAL-STUDIO\VC\TOOLS\MSVC\14.11.25503\INCLUDE\XKEYCHECK.H
E:\PROGRAMS\VISUAL-STUDIO\VC\TOOLS\MSVC\14.11.25503\INCLUDE\CRTDEFS.H
E:\PROGRAMS\VISUAL-STUDIO\VC\TOOLS\MSVC\14.11.25503\INCLUDE\VCRUNTIME.H
E:\PROGRAMS\VISUAL-STUDIO\VC\TOOLS\MSVC\14.11.25503\INCLUDE\SAL.H
E:\PROGRAMS\VISUAL-STUDIO\VC\TOOLS\MSVC\14.11.25503\INCLUDE\CONCURRENCYSAL.H
E:\PROGRAMS\VISUAL-STUDIO\VC\TOOLS\MSVC\14.11.25503\INCLUDE\VADEFS.H
C:\PROGRAM FILES (X86)\WINDOWS KITS\10\INCLUDE\10.0.16299.0\UCRT\CORECRT.H
E:\PROGRAMS\VISUAL-STUDIO\VC\TOOLS\MSVC\14.11.25503\INCLUDE\USE_ANSI.H
E:\PROGRAMS\VISUAL-STUDIO\VC\TOOLS\MSVC\14.11.25503\INCLUDE\LIMITS.H
E:\PROGRAMS\VISUAL-STUDIO\VC\TOOLS\MSVC\14.11.25503\INCLUDE\CMATH
E:\PROGRAMS\VISUAL-STUDIO\VC\TOOLS\MSVC\14.11.25503\INCLUDE\CSTDLIB
C:\PROGRAM FILES (X86)\WINDOWS KITS\10\INCLUDE\10.0.16299.0\UCRT\STDLIB.H
C:\PROGRAM FILES (X86)\WINDOWS KITS\10\INCLUDE\10.0.16299.0\UCRT\CORECRT_MALLOC.H
C:\PROGRAM FILES (X86)\WINDOWS KITS\10\INCLUDE\10.0.16299.0\UCRT\CORECRT_SEARCH.H
C:\PROGRAM FILES (X86)\WINDOWS KITS\10\INCLUDE\10.0.16299.0\UCRT\STDDEF.H
C:\PROGRAM FILES (X86)\WINDOWS KITS\10\INCLUDE\10.0.16299.0\UCRT\CORECRT_WSTDLIB.H
C:\PROGRAM FILES (X86)\WINDOWS KITS\10\INCLUDE\10.0.16299.0\UCRT\MATH.H
C:\PROGRAM FILES (X86)\WINDOWS KITS\10\INCLUDE\10.0.16299.0\UCRT\CORECRT_MATH.H
E:\PROGRAMS\VISUAL-STUDIO\VC\TOOLS\MSVC\14.11.25503\INCLUDE\XTGMATH.H
E:\PROGRAMS\VISUAL-STUDIO\VC\TOOLS\MSVC\14.11.25503\INCLUDE\XTR1COMMON
E:\PROGRAMS\VISUAL-STUDIO\VC\TOOLS\MSVC\14.11.25503\INCLUDE\CSTDIO
C:\PROGRAM FILES (X86)\WINDOWS KITS\10\INCLUDE\10.0.16299.0\UCRT\STDIO.H
C:\PROGRAM FILES (X86)\WINDOWS KITS\10\INCLUDE\10.0.16299.0\UCRT\CORECRT_WSTDIO.H
C:\PROGRAM FILES (X86)\WINDOWS KITS\10\INCLUDE\10.0.16299.0\UCRT\CORECRT_STDIO_CONFIG.H
E:\PROGRAMS\VISUAL-STUDIO\VC\TOOLS\MSVC\14.11.25503\INCLUDE\STREAMBUF
E:\PROGRAMS\VISUAL-STUDIO\VC\TOOLS\MSVC\14.11.25503\INCLUDE\XIOSBASE
E:\PROGRAMS\VISUAL-STUDIO\VC\TOOLS\MSVC\14.11.25503\INCLUDE\XLOCALE
E:\PROGRAMS\VISUAL-STUDIO\VC\TOOLS\MSVC\14.11.25503\INCLUDE\CSTRING
C:\PROGRAM FILES (X86)\WINDOWS KITS\10\INCLUDE\10.0.16299.0\UCRT\STRING.H
C:\PROGRAM FILES (X86)\WINDOWS KITS\10\INCLUDE\10.0.16299.0\UCRT\CORECRT_MEMORY.H
C:\PROGRAM FILES (X86)\WINDOWS KITS\10\INCLUDE\10.0.16299.0\UCRT\CORECRT_MEMCPY_S.H
C:\PROGRAM FILES (X86)\WINDOWS KITS\10\INCLUDE\10.0.16299.0\UCRT\ERRNO.H
E:\PROGRAMS\VISUAL-STUDIO\VC\TOOLS\MSVC\14.11.25503\INCLUDE\VCRUNTIME_STRING.H
C:\PROGRAM FILES (X86)\WINDOWS KITS\10\INCLUDE\10.0.16299.0\UCRT\CORECRT_WSTRING.H
E:\PROGRAMS\VISUAL-STUDIO\VC\TOOLS\MSVC\14.11.25503\INCLUDE\STDEXCEPT
E:\PROGRAMS\VISUAL-STUDIO\VC\TOOLS\MSVC\14.11.25503\INCLUDE\EXCEPTION
E:\PROGRAMS\VISUAL-STUDIO\VC\TOOLS\MSVC\14.11.25503\INCLUDE\TYPE_TRAITS
E:\PROGRAMS\VISUAL-STUDIO\VC\TOOLS\MSVC\14.11.25503\INCLUDE\XSTDDEF
E:\PROGRAMS\VISUAL-STUDIO\VC\TOOLS\MSVC\14.11.25503\INCLUDE\CSTDDEF
E:\PROGRAMS\VISUAL-STUDIO\VC\TOOLS\MSVC\14.11.25503\INCLUDE\INITIALIZER_LIST
C:\PROGRAM FILES (X86)\WINDOWS KITS\10\INCLUDE\10.0.16299.0\UCRT\MALLOC.H
E:\PROGRAMS\VISUAL-STUDIO\VC\TOOLS\MSVC\14.11.25503\INCLUDE\VCRUNTIME_EXCEPTION.H
E:\PROGRAMS\VISUAL-STUDIO\VC\TOOLS\MSVC\14.11.25503\INCLUDE\EH.H
C:\PROGRAM FILES (X86)\WINDOWS KITS\10\INCLUDE\10.0.16299.0\UCRT\CORECRT_TERMINATE.H
E:\PROGRAMS\VISUAL-STUDIO\VC\TOOLS\MSVC\14.11.25503\INCLUDE\XSTRING
E:\PROGRAMS\VISUAL-STUDIO\VC\TOOLS\MSVC\14.11.25503\INCLUDE\XMEMORY0
E:\PROGRAMS\VISUAL-STUDIO\VC\TOOLS\MSVC\14.11.25503\INCLUDE\CSTDINT
E:\PROGRAMS\VISUAL-STUDIO\VC\TOOLS\MSVC\14.11.25503\INCLUDE\STDINT.H
E:\PROGRAMS\VISUAL-STUDIO\VC\TOOLS\MSVC\14.11.25503\INCLUDE\LIMITS
E:\PROGRAMS\VISUAL-STUDIO\VC\TOOLS\MSVC\14.11.25503\INCLUDE\YMATH.H
E:\PROGRAMS\VISUAL-STUDIO\VC\TOOLS\MSVC\14.11.25503\INCLUDE\CFLOAT
C:\PROGRAM FILES (X86)\WINDOWS KITS\10\INCLUDE\10.0.16299.0\UCRT\FLOAT.H
E:\PROGRAMS\VISUAL-STUDIO\VC\TOOLS\MSVC\14.11.25503\INCLUDE\CWCHAR
C:\PROGRAM FILES (X86)\WINDOWS KITS\10\INCLUDE\10.0.16299.0\UCRT\WCHAR.H
C:\PROGRAM FILES (X86)\WINDOWS KITS\10\INCLUDE\10.0.16299.0\UCRT\CORECRT_WCONIO.H
C:\PROGRAM FILES (X86)\WINDOWS KITS\10\INCLUDE\10.0.16299.0\UCRT\CORECRT_WCTYPE.H
C:\PROGRAM FILES (X86)\WINDOWS KITS\10\INCLUDE\10.0.16299.0\UCRT\CORECRT_WDIRECT.H
C:\PROGRAM FILES (X86)\WINDOWS KITS\10\INCLUDE\10.0.16299.0\UCRT\CORECRT_WIO.H
C:\PROGRAM FILES (X86)\WINDOWS KITS\10\INCLUDE\10.0.16299.0\UCRT\CORECRT_SHARE.H
C:\PROGRAM FILES (X86)\WINDOWS KITS\10\INCLUDE\10.0.16299.0\UCRT\CORECRT_WPROCESS.H
C:\PROGRAM FILES (X86)\WINDOWS KITS\10\INCLUDE\10.0.16299.0\UCRT\CORECRT_WTIME.H
C:\PROGRAM FILES (X86)\WINDOWS KITS\10\INCLUDE\10.0.16299.0\UCRT\SYS\STAT.H
C:\PROGRAM FILES (X86)\WINDOWS KITS\10\INCLUDE\10.0.16299.0\UCRT\SYS\TYPES.H
E:\PROGRAMS\VISUAL-STUDIO\VC\TOOLS\MSVC\14.11.25503\INCLUDE\NEW
E:\PROGRAMS\VISUAL-STUDIO\VC\TOOLS\MSVC\14.11.25503\INCLUDE\VCRUNTIME_NEW.H
E:\PROGRAMS\VISUAL-STUDIO\VC\TOOLS\MSVC\14.11.25503\INCLUDE\XUTILITY
E:\PROGRAMS\VISUAL-STUDIO\VC\TOOLS\MSVC\14.11.25503\INCLUDE\UTILITY
E:\PROGRAMS\VISUAL-STUDIO\VC\TOOLS\MSVC\14.11.25503\INCLUDE\IOSFWD
C:\PROGRAM FILES (X86)\WINDOWS KITS\10\INCLUDE\10.0.16299.0\UCRT\CRTDBG.H
E:\PROGRAMS\VISUAL-STUDIO\VC\TOOLS\MSVC\14.11.25503\INCLUDE\VCRUNTIME_NEW_DEBUG.H
E:\PROGRAMS\VISUAL-STUDIO\VC\TOOLS\MSVC\14.11.25503\INCLUDE\XATOMIC0.H
E:\PROGRAMS\VISUAL-STUDIO\VC\TOOLS\MSVC\14.11.25503\INCLUDE\INTRIN0.H
E:\PROGRAMS\VISUAL-STUDIO\VC\TOOLS\MSVC\14.11.25503\INCLUDE\TYPEINFO
E:\PROGRAMS\VISUAL-STUDIO\VC\TOOLS\MSVC\14.11.25503\INCLUDE\VCRUNTIME_TYPEINFO.H
E:\PROGRAMS\VISUAL-STUDIO\VC\TOOLS\MSVC\14.11.25503\INCLUDE\XLOCINFO
E:\PROGRAMS\VISUAL-STUDIO\VC\TOOLS\MSVC\14.11.25503\INCLUDE\XLOCINFO.H
C:\PROGRAM FILES (X86)\WINDOWS KITS\10\INCLUDE\10.0.16299.0\UCRT\CTYPE.H
C:\PROGRAM FILES (X86)\WINDOWS KITS\10\INCLUDE\10.0.16299.0\UCRT\LOCALE.H
E:\PROGRAMS\VISUAL-STUDIO\VC\TOOLS\MSVC\14.11.25503\INCLUDE\XFACET
E:\PROGRAMS\VISUAL-STUDIO\VC\TOOLS\MSVC\14.11.25503\INCLUDE\SYSTEM_ERROR
E:\PROGRAMS\VISUAL-STUDIO\VC\TOOLS\MSVC\14.11.25503\INCLUDE\CERRNO
E:\PROGRAMS\VISUAL-STUDIO\VC\TOOLS\MSVC\14.11.25503\INCLUDE\XCALL_ONCE.H
C:\PROGRAM FILES (X86)\WINDOWS KITS\10\INCLUDE\10.0.16299.0\UCRT\SHARE.H
E:\PROGRAMS\VISUAL-STUDIO\VC\TOOLS\MSVC\14.11.25503\INCLUDE\XSTRING_INSERT.H
C:\PROGRAM FILES (X86)\WINDOWS KITS\10\INCLUDE\10.0.16299.0\UCRT\TIME.H
E:\PROGRAMS\VISUAL-STUDIO\VC\TOOLS\MSVC\14.11.25503\INCLUDE\RANDOM
E:\PROGRAMS\VISUAL-STUDIO\VC\TOOLS\MSVC\14.11.25503\INCLUDE\ALGORITHM
E:\PROGRAMS\VISUAL-STUDIO\VC\TOOLS\MSVC\14.11.25503\INCLUDE\XMEMORY
E:\PROGRAMS\VISUAL-STUDIO\VC\TOOLS\MSVC\14.11.25503\INCLUDE\VECTOR
^E:\CONSOLE-RPG\CONSOLE-RPG\CONSOLE-RPG\CONSOLE-RPG\SKELETON.CPP
E:\CONSOLE-RPG\CONSOLE-RPG\CONSOLE-RPG\CONSOLE-RPG\SKELETON.H
E:\CONSOLE-RPG\CONSOLE-RPG\CONSOLE-RPG\CONSOLE-RPG\MONSTER.H
E:\PROGRAMS\VISUAL-STUDIO\VC\TOOLS\MSVC\14.11.25503\INCLUDE\STRING
E:\PROGRAMS\VISUAL-STUDIO\VC\TOOLS\MSVC\14.11.25503\INCLUDE\ISTREAM
E:\PROGRAMS\VISUAL-STUDIO\VC\TOOLS\MSVC\14.11.25503\INCLUDE\OSTREAM
E:\PROGRAMS\VISUAL-STUDIO\VC\TOOLS\MSVC\14.11.25503\INCLUDE\IOS
E:\PROGRAMS\VISUAL-STUDIO\VC\TOOLS\MSVC\14.11.25503\INCLUDE\XLOCNUM
E:\PROGRAMS\VISUAL-STUDIO\VC\TOOLS\MSVC\14.11.25503\INCLUDE\CLIMITS
E:\PROGRAMS\VISUAL-STUDIO\VC\TOOLS\MSVC\14.11.25503\INCLUDE\YVALS.H
E:\PROGRAMS\VISUAL-STUDIO\VC\TOOLS\MSVC\14.11.25503\INCLUDE\XKEYCHECK.H
E:\PROGRAMS\VISUAL-STUDIO\VC\TOOLS\MSVC\14.11.25503\INCLUDE\CRTDEFS.H
E:\PROGRAMS\VISUAL-STUDIO\VC\TOOLS\MSVC\14.11.25503\INCLUDE\VCRUNTIME.H
E:\PROGRAMS\VISUAL-STUDIO\VC\TOOLS\MSVC\14.11.25503\INCLUDE\SAL.H
E:\PROGRAMS\VISUAL-STUDIO\VC\TOOLS\MSVC\14.11.25503\INCLUDE\CONCURRENCYSAL.H
E:\PROGRAMS\VISUAL-STUDIO\VC\TOOLS\MSVC\14.11.25503\INCLUDE\VADEFS.H
C:\PROGRAM FILES (X86)\WINDOWS KITS\10\INCLUDE\10.0.16299.0\UCRT\CORECRT.H
E:\PROGRAMS\VISUAL-STUDIO\VC\TOOLS\MSVC\14.11.25503\INCLUDE\USE_ANSI.H
E:\PROGRAMS\VISUAL-STUDIO\VC\TOOLS\MSVC\14.11.25503\INCLUDE\LIMITS.H
E:\PROGRAMS\VISUAL-STUDIO\VC\TOOLS\MSVC\14.11.25503\INCLUDE\CMATH
E:\PROGRAMS\VISUAL-STUDIO\VC\TOOLS\MSVC\14.11.25503\INCLUDE\CSTDLIB
C:\PROGRAM FILES (X86)\WINDOWS KITS\10\INCLUDE\10.0.16299.0\UCRT\STDLIB.H
C:\PROGRAM FILES (X86)\WINDOWS KITS\10\INCLUDE\10.0.16299.0\UCRT\CORECRT_MALLOC.H
C:\PROGRAM FILES (X86)\WINDOWS KITS\10\INCLUDE\10.0.16299.0\UCRT\CORECRT_SEARCH.H
C:\PROGRAM FILES (X86)\WINDOWS KITS\10\INCLUDE\10.0.16299.0\UCRT\STDDEF.H
C:\PROGRAM FILES (X86)\WINDOWS KITS\10\INCLUDE\10.0.16299.0\UCRT\CORECRT_WSTDLIB.H
C:\PROGRAM FILES (X86)\WINDOWS KITS\10\INCLUDE\10.0.16299.0\UCRT\MATH.H
C:\PROGRAM FILES (X86)\WINDOWS KITS\10\INCLUDE\10.0.16299.0\UCRT\CORECRT_MATH.H
E:\PROGRAMS\VISUAL-STUDIO\VC\TOOLS\MSVC\14.11.25503\INCLUDE\XTGMATH.H
E:\PROGRAMS\VISUAL-STUDIO\VC\TOOLS\MSVC\14.11.25503\INCLUDE\XTR1COMMON
E:\PROGRAMS\VISUAL-STUDIO\VC\TOOLS\MSVC\14.11.25503\INCLUDE\CSTDIO
C:\PROGRAM FILES (X86)\WINDOWS KITS\10\INCLUDE\10.0.16299.0\UCRT\STDIO.H
C:\PROGRAM FILES (X86)\WINDOWS KITS\10\INCLUDE\10.0.16299.0\UCRT\CORECRT_WSTDIO.H
C:\PROGRAM FILES (X86)\WINDOWS KITS\10\INCLUDE\10.0.16299.0\UCRT\CORECRT_STDIO_CONFIG.H
E:\PROGRAMS\VISUAL-STUDIO\VC\TOOLS\MSVC\14.11.25503\INCLUDE\STREAMBUF
E:\PROGRAMS\VISUAL-STUDIO\VC\TOOLS\MSVC\14.11.25503\INCLUDE\XIOSBASE
E:\PROGRAMS\VISUAL-STUDIO\VC\TOOLS\MSVC\14.11.25503\INCLUDE\XLOCALE
E:\PROGRAMS\VISUAL-STUDIO\VC\TOOLS\MSVC\14.11.25503\INCLUDE\CSTRING
C:\PROGRAM FILES (X86)\WINDOWS KITS\10\INCLUDE\10.0.16299.0\UCRT\STRING.H
C:\PROGRAM FILES (X86)\WINDOWS KITS\10\INCLUDE\10.0.16299.0\UCRT\CORECRT_MEMORY.H
C:\PROGRAM FILES (X86)\WINDOWS KITS\10\INCLUDE\10.0.16299.0\UCRT\CORECRT_MEMCPY_S.H
C:\PROGRAM FILES (X86)\WINDOWS KITS\10\INCLUDE\10.0.16299.0\UCRT\ERRNO.H
E:\PROGRAMS\VISUAL-STUDIO\VC\TOOLS\MSVC\14.11.25503\INCLUDE\VCRUNTIME_STRING.H
C:\PROGRAM FILES (X86)\WINDOWS KITS\10\INCLUDE\10.0.16299.0\UCRT\CORECRT_WSTRING.H
E:\PROGRAMS\VISUAL-STUDIO\VC\TOOLS\MSVC\14.11.25503\INCLUDE\STDEXCEPT
E:\PROGRAMS\VISUAL-STUDIO\VC\TOOLS\MSVC\14.11.25503\INCLUDE\EXCEPTION
E:\PROGRAMS\VISUAL-STUDIO\VC\TOOLS\MSVC\14.11.25503\INCLUDE\TYPE_TRAITS
E:\PROGRAMS\VISUAL-STUDIO\VC\TOOLS\MSVC\14.11.25503\INCLUDE\XSTDDEF
E:\PROGRAMS\VISUAL-STUDIO\VC\TOOLS\MSVC\14.11.25503\INCLUDE\CSTDDEF
E:\PROGRAMS\VISUAL-STUDIO\VC\TOOLS\MSVC\14.11.25503\INCLUDE\INITIALIZER_LIST
C:\PROGRAM FILES (X86)\WINDOWS KITS\10\INCLUDE\10.0.16299.0\UCRT\MALLOC.H
E:\PROGRAMS\VISUAL-STUDIO\VC\TOOLS\MSVC\14.11.25503\INCLUDE\VCRUNTIME_EXCEPTION.H
E:\PROGRAMS\VISUAL-STUDIO\VC\TOOLS\MSVC\14.11.25503\INCLUDE\EH.H
C:\PROGRAM FILES (X86)\WINDOWS KITS\10\INCLUDE\10.0.16299.0\UCRT\CORECRT_TERMINATE.H
E:\PROGRAMS\VISUAL-STUDIO\VC\TOOLS\MSVC\14.11.25503\INCLUDE\XSTRING
E:\PROGRAMS\VISUAL-STUDIO\VC\TOOLS\MSVC\14.11.25503\INCLUDE\XMEMORY0
E:\PROGRAMS\VISUAL-STUDIO\VC\TOOLS\MSVC\14.11.25503\INCLUDE\CSTDINT
E:\PROGRAMS\VISUAL-STUDIO\VC\TOOLS\MSVC\14.11.25503\INCLUDE\STDINT.H
E:\PROGRAMS\VISUAL-STUDIO\VC\TOOLS\MSVC\14.11.25503\INCLUDE\LIMITS
E:\PROGRAMS\VISUAL-STUDIO\VC\TOOLS\MSVC\14.11.25503\INCLUDE\YMATH.H
E:\PROGRAMS\VISUAL-STUDIO\VC\TOOLS\MSVC\14.11.25503\INCLUDE\CFLOAT
C:\PROGRAM FILES (X86)\WINDOWS KITS\10\INCLUDE\10.0.16299.0\UCRT\FLOAT.H
E:\PROGRAMS\VISUAL-STUDIO\VC\TOOLS\MSVC\14.11.25503\INCLUDE\CWCHAR
C:\PROGRAM FILES (X86)\WINDOWS KITS\10\INCLUDE\10.0.16299.0\UCRT\WCHAR.H
C:\PROGRAM FILES (X86)\WINDOWS KITS\10\INCLUDE\10.0.16299.0\UCRT\CORECRT_WCONIO.H
C:\PROGRAM FILES (X86)\WINDOWS KITS\10\INCLUDE\10.0.16299.0\UCRT\CORECRT_WCTYPE.H
C:\PROGRAM FILES (X86)\WINDOWS KITS\10\INCLUDE\10.0.16299.0\UCRT\CORECRT_WDIRECT.H
C:\PROGRAM FILES (X86)\WINDOWS KITS\10\INCLUDE\10.0.16299.0\UCRT\CORECRT_WIO.H
C:\PROGRAM FILES (X86)\WINDOWS KITS\10\INCLUDE\10.0.16299.0\UCRT\CORECRT_SHARE.H
C:\PROGRAM FILES (X86)\WINDOWS KITS\10\INCLUDE\10.0.16299.0\UCRT\CORECRT_WPROCESS.H
C:\PROGRAM FILES (X86)\WINDOWS KITS\10\INCLUDE\10.0.16299.0\UCRT\CORECRT_WTIME.H
C:\PROGRAM FILES (X86)\WINDOWS KITS\10\INCLUDE\10.0.16299.0\UCRT\SYS\STAT.H
C:\PROGRAM FILES (X86)\WINDOWS KITS\10\INCLUDE\10.0.16299.0\UCRT\SYS\TYPES.H
E:\PROGRAMS\VISUAL-STUDIO\VC\TOOLS\MSVC\14.11.25503\INCLUDE\NEW
E:\PROGRAMS\VISUAL-STUDIO\VC\TOOLS\MSVC\14.11.25503\INCLUDE\VCRUNTIME_NEW.H
E:\PROGRAMS\VISUAL-STUDIO\VC\TOOLS\MSVC\14.11.25503\INCLUDE\XUTILITY
E:\PROGRAMS\VISUAL-STUDIO\VC\TOOLS\MSVC\14.11.25503\INCLUDE\UTILITY
E:\PROGRAMS\VISUAL-STUDIO\VC\TOOLS\MSVC\14.11.25503\INCLUDE\IOSFWD
C:\PROGRAM FILES (X86)\WINDOWS KITS\10\INCLUDE\10.0.16299.0\UCRT\CRTDBG.H
E:\PROGRAMS\VISUAL-STUDIO\VC\TOOLS\MSVC\14.11.25503\INCLUDE\VCRUNTIME_NEW_DEBUG.H
E:\PROGRAMS\VISUAL-STUDIO\VC\TOOLS\MSVC\14.11.25503\INCLUDE\XATOMIC0.H
E:\PROGRAMS\VISUAL-STUDIO\VC\TOOLS\MSVC\14.11.25503\INCLUDE\INTRIN0.H
E:\PROGRAMS\VISUAL-STUDIO\VC\TOOLS\MSVC\14.11.25503\INCLUDE\TYPEINFO
E:\PROGRAMS\VISUAL-STUDIO\VC\TOOLS\MSVC\14.11.25503\INCLUDE\VCRUNTIME_TYPEINFO.H
E:\PROGRAMS\VISUAL-STUDIO\VC\TOOLS\MSVC\14.11.25503\INCLUDE\XLOCINFO
E:\PROGRAMS\VISUAL-STUDIO\VC\TOOLS\MSVC\14.11.25503\INCLUDE\XLOCINFO.H
C:\PROGRAM FILES (X86)\WINDOWS KITS\10\INCLUDE\10.0.16299.0\UCRT\CTYPE.H
C:\PROGRAM FILES (X86)\WINDOWS KITS\10\INCLUDE\10.0.16299.0\UCRT\LOCALE.H
E:\PROGRAMS\VISUAL-STUDIO\VC\TOOLS\MSVC\14.11.25503\INCLUDE\XFACET
E:\PROGRAMS\VISUAL-STUDIO\VC\TOOLS\MSVC\14.11.25503\INCLUDE\SYSTEM_ERROR
E:\PROGRAMS\VISUAL-STUDIO\VC\TOOLS\MSVC\14.11.25503\INCLUDE\CERRNO
E:\PROGRAMS\VISUAL-STUDIO\VC\TOOLS\MSVC\14.11.25503\INCLUDE\XCALL_ONCE.H
C:\PROGRAM FILES (X86)\WINDOWS KITS\10\INCLUDE\10.0.16299.0\UCRT\SHARE.H
E:\PROGRAMS\VISUAL-STUDIO\VC\TOOLS\MSVC\14.11.25503\INCLUDE\XSTRING_INSERT.H
C:\PROGRAM FILES (X86)\WINDOWS KITS\10\INCLUDE\10.0.16299.0\UCRT\TIME.H
E:\PROGRAMS\VISUAL-STUDIO\VC\TOOLS\MSVC\14.11.25503\INCLUDE\RANDOM
E:\PROGRAMS\VISUAL-STUDIO\VC\TOOLS\MSVC\14.11.25503\INCLUDE\ALGORITHM
E:\PROGRAMS\VISUAL-STUDIO\VC\TOOLS\MSVC\14.11.25503\INCLUDE\XMEMORY
E:\PROGRAMS\VISUAL-STUDIO\VC\TOOLS\MSVC\14.11.25503\INCLUDE\VECTOR
^E:\CONSOLE-RPG\CONSOLE-RPG\CONSOLE-RPG\CONSOLE-RPG\PLAYER.CPP
E:\CONSOLE-RPG\CONSOLE-RPG\CONSOLE-RPG\CONSOLE-RPG\PLAYER.H
E:\PROGRAMS\VISUAL-STUDIO\VC\TOOLS\MSVC\14.11.25503\INCLUDE\STRING
E:\PROGRAMS\VISUAL-STUDIO\VC\TOOLS\MSVC\14.11.25503\INCLUDE\ISTREAM
E:\PROGRAMS\VISUAL-STUDIO\VC\TOOLS\MSVC\14.11.25503\INCLUDE\OSTREAM
E:\PROGRAMS\VISUAL-STUDIO\VC\TOOLS\MSVC\14.11.25503\INCLUDE\IOS
E:\PROGRAMS\VISUAL-STUDIO\VC\TOOLS\MSVC\14.11.25503\INCLUDE\XLOCNUM
E:\PROGRAMS\VISUAL-STUDIO\VC\TOOLS\MSVC\14.11.25503\INCLUDE\CLIMITS
E:\PROGRAMS\VISUAL-STUDIO\VC\TOOLS\MSVC\14.11.25503\INCLUDE\YVALS.H
E:\PROGRAMS\VISUAL-STUDIO\VC\TOOLS\MSVC\14.11.25503\INCLUDE\XKEYCHECK.H
E:\PROGRAMS\VISUAL-STUDIO\VC\TOOLS\MSVC\14.11.25503\INCLUDE\CRTDEFS.H
E:\PROGRAMS\VISUAL-STUDIO\VC\TOOLS\MSVC\14.11.25503\INCLUDE\VCRUNTIME.H
E:\PROGRAMS\VISUAL-STUDIO\VC\TOOLS\MSVC\14.11.25503\INCLUDE\SAL.H
E:\PROGRAMS\VISUAL-STUDIO\VC\TOOLS\MSVC\14.11.25503\INCLUDE\CONCURRENCYSAL.H
E:\PROGRAMS\VISUAL-STUDIO\VC\TOOLS\MSVC\14.11.25503\INCLUDE\VADEFS.H
C:\PROGRAM FILES (X86)\WINDOWS KITS\10\INCLUDE\10.0.16299.0\UCRT\CORECRT.H
E:\PROGRAMS\VISUAL-STUDIO\VC\TOOLS\MSVC\14.11.25503\INCLUDE\USE_ANSI.H
E:\PROGRAMS\VISUAL-STUDIO\VC\TOOLS\MSVC\14.11.25503\INCLUDE\LIMITS.H
E:\PROGRAMS\VISUAL-STUDIO\VC\TOOLS\MSVC\14.11.25503\INCLUDE\CMATH
E:\PROGRAMS\VISUAL-STUDIO\VC\TOOLS\MSVC\14.11.25503\INCLUDE\CSTDLIB
C:\PROGRAM FILES (X86)\WINDOWS KITS\10\INCLUDE\10.0.16299.0\UCRT\STDLIB.H
C:\PROGRAM FILES (X86)\WINDOWS KITS\10\INCLUDE\10.0.16299.0\UCRT\CORECRT_MALLOC.H
C:\PROGRAM FILES (X86)\WINDOWS KITS\10\INCLUDE\10.0.16299.0\UCRT\CORECRT_SEARCH.H
C:\PROGRAM FILES (X86)\WINDOWS KITS\10\INCLUDE\10.0.16299.0\UCRT\STDDEF.H
C:\PROGRAM FILES (X86)\WINDOWS KITS\10\INCLUDE\10.0.16299.0\UCRT\CORECRT_WSTDLIB.H
C:\PROGRAM FILES (X86)\WINDOWS KITS\10\INCLUDE\10.0.16299.0\UCRT\MATH.H
C:\PROGRAM FILES (X86)\WINDOWS KITS\10\INCLUDE\10.0.16299.0\UCRT\CORECRT_MATH.H
E:\PROGRAMS\VISUAL-STUDIO\VC\TOOLS\MSVC\14.11.25503\INCLUDE\XTGMATH.H
E:\PROGRAMS\VISUAL-STUDIO\VC\TOOLS\MSVC\14.11.25503\INCLUDE\XTR1COMMON
E:\PROGRAMS\VISUAL-STUDIO\VC\TOOLS\MSVC\14.11.25503\INCLUDE\CSTDIO
C:\PROGRAM FILES (X86)\WINDOWS KITS\10\INCLUDE\10.0.16299.0\UCRT\STDIO.H
C:\PROGRAM FILES (X86)\WINDOWS KITS\10\INCLUDE\10.0.16299.0\UCRT\CORECRT_WSTDIO.H
C:\PROGRAM FILES (X86)\WINDOWS KITS\10\INCLUDE\10.0.16299.0\UCRT\CORECRT_STDIO_CONFIG.H
E:\PROGRAMS\VISUAL-STUDIO\VC\TOOLS\MSVC\14.11.25503\INCLUDE\STREAMBUF
E:\PROGRAMS\VISUAL-STUDIO\VC\TOOLS\MSVC\14.11.25503\INCLUDE\XIOSBASE
E:\PROGRAMS\VISUAL-STUDIO\VC\TOOLS\MSVC\14.11.25503\INCLUDE\XLOCALE
E:\PROGRAMS\VISUAL-STUDIO\VC\TOOLS\MSVC\14.11.25503\INCLUDE\CSTRING
C:\PROGRAM FILES (X86)\WINDOWS KITS\10\INCLUDE\10.0.16299.0\UCRT\STRING.H
C:\PROGRAM FILES (X86)\WINDOWS KITS\10\INCLUDE\10.0.16299.0\UCRT\CORECRT_MEMORY.H
C:\PROGRAM FILES (X86)\WINDOWS KITS\10\INCLUDE\10.0.16299.0\UCRT\CORECRT_MEMCPY_S.H
C:\PROGRAM FILES (X86)\WINDOWS KITS\10\INCLUDE\10.0.16299.0\UCRT\ERRNO.H
E:\PROGRAMS\VISUAL-STUDIO\VC\TOOLS\MSVC\14.11.25503\INCLUDE\VCRUNTIME_STRING.H
C:\PROGRAM FILES (X86)\WINDOWS KITS\10\INCLUDE\10.0.16299.0\UCRT\CORECRT_WSTRING.H
E:\PROGRAMS\VISUAL-STUDIO\VC\TOOLS\MSVC\14.11.25503\INCLUDE\STDEXCEPT
E:\PROGRAMS\VISUAL-STUDIO\VC\TOOLS\MSVC\14.11.25503\INCLUDE\EXCEPTION
E:\PROGRAMS\VISUAL-STUDIO\VC\TOOLS\MSVC\14.11.25503\INCLUDE\TYPE_TRAITS
E:\PROGRAMS\VISUAL-STUDIO\VC\TOOLS\MSVC\14.11.25503\INCLUDE\XSTDDEF
E:\PROGRAMS\VISUAL-STUDIO\VC\TOOLS\MSVC\14.11.25503\INCLUDE\CSTDDEF
E:\PROGRAMS\VISUAL-STUDIO\VC\TOOLS\MSVC\14.11.25503\INCLUDE\INITIALIZER_LIST
C:\PROGRAM FILES (X86)\WINDOWS KITS\10\INCLUDE\10.0.16299.0\UCRT\MALLOC.H
E:\PROGRAMS\VISUAL-STUDIO\VC\TOOLS\MSVC\14.11.25503\INCLUDE\VCRUNTIME_EXCEPTION.H
E:\PROGRAMS\VISUAL-STUDIO\VC\TOOLS\MSVC\14.11.25503\INCLUDE\EH.H
C:\PROGRAM FILES (X86)\WINDOWS KITS\10\INCLUDE\10.0.16299.0\UCRT\CORECRT_TERMINATE.H
E:\PROGRAMS\VISUAL-STUDIO\VC\TOOLS\MSVC\14.11.25503\INCLUDE\XSTRING
E:\PROGRAMS\VISUAL-STUDIO\VC\TOOLS\MSVC\14.11.25503\INCLUDE\XMEMORY0
E:\PROGRAMS\VISUAL-STUDIO\VC\TOOLS\MSVC\14.11.25503\INCLUDE\CSTDINT
E:\PROGRAMS\VISUAL-STUDIO\VC\TOOLS\MSVC\14.11.25503\INCLUDE\STDINT.H
E:\PROGRAMS\VISUAL-STUDIO\VC\TOOLS\MSVC\14.11.25503\INCLUDE\LIMITS
E:\PROGRAMS\VISUAL-STUDIO\VC\TOOLS\MSVC\14.11.25503\INCLUDE\YMATH.H
E:\PROGRAMS\VISUAL-STUDIO\VC\TOOLS\MSVC\14.11.25503\INCLUDE\CFLOAT
C:\PROGRAM FILES (X86)\WINDOWS KITS\10\INCLUDE\10.0.16299.0\UCRT\FLOAT.H
E:\PROGRAMS\VISUAL-STUDIO\VC\TOOLS\MSVC\14.11.25503\INCLUDE\CWCHAR
C:\PROGRAM FILES (X86)\WINDOWS KITS\10\INCLUDE\10.0.16299.0\UCRT\WCHAR.H
C:\PROGRAM FILES (X86)\WINDOWS KITS\10\INCLUDE\10.0.16299.0\UCRT\CORECRT_WCONIO.H
C:\PROGRAM FILES (X86)\WINDOWS KITS\10\INCLUDE\10.0.16299.0\UCRT\CORECRT_WCTYPE.H
C:\PROGRAM FILES (X86)\WINDOWS KITS\10\INCLUDE\10.0.16299.0\UCRT\CORECRT_WDIRECT.H
C:\PROGRAM FILES (X86)\WINDOWS KITS\10\INCLUDE\10.0.16299.0\UCRT\CORECRT_WIO.H
C:\PROGRAM FILES (X86)\WINDOWS KITS\10\INCLUDE\10.0.16299.0\UCRT\CORECRT_SHARE.H
C:\PROGRAM FILES (X86)\WINDOWS KITS\10\INCLUDE\10.0.16299.0\UCRT\CORECRT_WPROCESS.H
C:\PROGRAM FILES (X86)\WINDOWS KITS\10\INCLUDE\10.0.16299.0\UCRT\CORECRT_WTIME.H
C:\PROGRAM FILES (X86)\WINDOWS KITS\10\INCLUDE\10.0.16299.0\UCRT\SYS\STAT.H
C:\PROGRAM FILES (X86)\WINDOWS KITS\10\INCLUDE\10.0.16299.0\UCRT\SYS\TYPES.H
E:\PROGRAMS\VISUAL-STUDIO\VC\TOOLS\MSVC\14.11.25503\INCLUDE\NEW
E:\PROGRAMS\VISUAL-STUDIO\VC\TOOLS\MSVC\14.11.25503\INCLUDE\VCRUNTIME_NEW.H
E:\PROGRAMS\VISUAL-STUDIO\VC\TOOLS\MSVC\14.11.25503\INCLUDE\XUTILITY
E:\PROGRAMS\VISUAL-STUDIO\VC\TOOLS\MSVC\14.11.25503\INCLUDE\UTILITY
E:\PROGRAMS\VISUAL-STUDIO\VC\TOOLS\MSVC\14.11.25503\INCLUDE\IOSFWD
C:\PROGRAM FILES (X86)\WINDOWS KITS\10\INCLUDE\10.0.16299.0\UCRT\CRTDBG.H
E:\PROGRAMS\VISUAL-STUDIO\VC\TOOLS\MSVC\14.11.25503\INCLUDE\VCRUNTIME_NEW_DEBUG.H
E:\PROGRAMS\VISUAL-STUDIO\VC\TOOLS\MSVC\14.11.25503\INCLUDE\XATOMIC0.H
E:\PROGRAMS\VISUAL-STUDIO\VC\TOOLS\MSVC\14.11.25503\INCLUDE\INTRIN0.H
E:\PROGRAMS\VISUAL-STUDIO\VC\TOOLS\MSVC\14.11.25503\INCLUDE\TYPEINFO
E:\PROGRAMS\VISUAL-STUDIO\VC\TOOLS\MSVC\14.11.25503\INCLUDE\VCRUNTIME_TYPEINFO.H
E:\PROGRAMS\VISUAL-STUDIO\VC\TOOLS\MSVC\14.11.25503\INCLUDE\XLOCINFO
E:\PROGRAMS\VISUAL-STUDIO\VC\TOOLS\MSVC\14.11.25503\INCLUDE\XLOCINFO.H
C:\PROGRAM FILES (X86)\WINDOWS KITS\10\INCLUDE\10.0.16299.0\UCRT\CTYPE.H
C:\PROGRAM FILES (X86)\WINDOWS KITS\10\INCLUDE\10.0.16299.0\UCRT\LOCALE.H
E:\PROGRAMS\VISUAL-STUDIO\VC\TOOLS\MSVC\14.11.25503\INCLUDE\XFACET
E:\PROGRAMS\VISUAL-STUDIO\VC\TOOLS\MSVC\14.11.25503\INCLUDE\SYSTEM_ERROR
E:\PROGRAMS\VISUAL-STUDIO\VC\TOOLS\MSVC\14.11.25503\INCLUDE\CERRNO
E:\PROGRAMS\VISUAL-STUDIO\VC\TOOLS\MSVC\14.11.25503\INCLUDE\XCALL_ONCE.H
C:\PROGRAM FILES (X86)\WINDOWS KITS\10\INCLUDE\10.0.16299.0\UCRT\SHARE.H
E:\PROGRAMS\VISUAL-STUDIO\VC\TOOLS\MSVC\14.11.25503\INCLUDE\XSTRING_INSERT.H
E:\PROGRAMS\VISUAL-STUDIO\VC\TOOLS\MSVC\14.11.25503\INCLUDE\VECTOR
E:\PROGRAMS\VISUAL-STUDIO\VC\TOOLS\MSVC\14.11.25503\INCLUDE\XMEMORY
E:\PROGRAMS\VISUAL-STUDIO\VC\TOOLS\MSVC\14.11.25503\INCLUDE\IOSTREAM
E:\CONSOLE-RPG\CONSOLE-RPG\CONSOLE-RPG\CONSOLE-RPG\BOARD.H
E:\CONSOLE-RPG\CONSOLE-RPG\CONSOLE-RPG\CONSOLE-RPG\ZOMBIE.H
E:\CONSOLE-RPG\CONSOLE-RPG\CONSOLE-RPG\CONSOLE-RPG\MONSTER.H
C:\PROGRAM FILES (X86)\WINDOWS KITS\10\INCLUDE\10.0.16299.0\UCRT\TIME.H
E:\CONSOLE-RPG\CONSOLE-RPG\CONSOLE-RPG\CONSOLE-RPG\SKELETON.H
E:\PROGRAMS\VISUAL-STUDIO\VC\TOOLS\MSVC\14.11.25503\INCLUDE\RANDOM
E:\PROGRAMS\VISUAL-STUDIO\VC\TOOLS\MSVC\14.11.25503\INCLUDE\ALGORITHM
^E:\CONSOLE-RPG\CONSOLE-RPG\CONSOLE-RPG\CONSOLE-RPG\MAIN.CPP
E:\CONSOLE-RPG\CONSOLE-RPG\CONSOLE-RPG\CONSOLE-RPG\GAME.H
E:\CONSOLE-RPG\CONSOLE-RPG\CONSOLE-RPG\CONSOLE-RPG\BOARD.H
E:\PROGRAMS\VISUAL-STUDIO\VC\TOOLS\MSVC\14.11.25503\INCLUDE\VECTOR
E:\PROGRAMS\VISUAL-STUDIO\VC\TOOLS\MSVC\14.11.25503\INCLUDE\XMEMORY
E:\PROGRAMS\VISUAL-STUDIO\VC\TOOLS\MSVC\14.11.25503\INCLUDE\XMEMORY0
E:\PROGRAMS\VISUAL-STUDIO\VC\TOOLS\MSVC\14.11.25503\INCLUDE\CSTDINT
E:\PROGRAMS\VISUAL-STUDIO\VC\TOOLS\MSVC\14.11.25503\INCLUDE\YVALS.H
E:\PROGRAMS\VISUAL-STUDIO\VC\TOOLS\MSVC\14.11.25503\INCLUDE\XKEYCHECK.H
E:\PROGRAMS\VISUAL-STUDIO\VC\TOOLS\MSVC\14.11.25503\INCLUDE\CRTDEFS.H
E:\PROGRAMS\VISUAL-STUDIO\VC\TOOLS\MSVC\14.11.25503\INCLUDE\VCRUNTIME.H
E:\PROGRAMS\VISUAL-STUDIO\VC\TOOLS\MSVC\14.11.25503\INCLUDE\SAL.H
E:\PROGRAMS\VISUAL-STUDIO\VC\TOOLS\MSVC\14.11.25503\INCLUDE\CONCURRENCYSAL.H
E:\PROGRAMS\VISUAL-STUDIO\VC\TOOLS\MSVC\14.11.25503\INCLUDE\VADEFS.H
C:\PROGRAM FILES (X86)\WINDOWS KITS\10\INCLUDE\10.0.16299.0\UCRT\CORECRT.H
E:\PROGRAMS\VISUAL-STUDIO\VC\TOOLS\MSVC\14.11.25503\INCLUDE\USE_ANSI.H
E:\PROGRAMS\VISUAL-STUDIO\VC\TOOLS\MSVC\14.11.25503\INCLUDE\STDINT.H
E:\PROGRAMS\VISUAL-STUDIO\VC\TOOLS\MSVC\14.11.25503\INCLUDE\CSTDLIB
C:\PROGRAM FILES (X86)\WINDOWS KITS\10\INCLUDE\10.0.16299.0\UCRT\STDLIB.H
C:\PROGRAM FILES (X86)\WINDOWS KITS\10\INCLUDE\10.0.16299.0\UCRT\CORECRT_MALLOC.H
C:\PROGRAM FILES (X86)\WINDOWS KITS\10\INCLUDE\10.0.16299.0\UCRT\CORECRT_SEARCH.H
C:\PROGRAM FILES (X86)\WINDOWS KITS\10\INCLUDE\10.0.16299.0\UCRT\STDDEF.H
C:\PROGRAM FILES (X86)\WINDOWS KITS\10\INCLUDE\10.0.16299.0\UCRT\CORECRT_WSTDLIB.H
E:\PROGRAMS\VISUAL-STUDIO\VC\TOOLS\MSVC\14.11.25503\INCLUDE\LIMITS.H
C:\PROGRAM FILES (X86)\WINDOWS KITS\10\INCLUDE\10.0.16299.0\UCRT\MATH.H
C:\PROGRAM FILES (X86)\WINDOWS KITS\10\INCLUDE\10.0.16299.0\UCRT\CORECRT_MATH.H
E:\PROGRAMS\VISUAL-STUDIO\VC\TOOLS\MSVC\14.11.25503\INCLUDE\LIMITS
E:\PROGRAMS\VISUAL-STUDIO\VC\TOOLS\MSVC\14.11.25503\INCLUDE\YMATH.H
E:\PROGRAMS\VISUAL-STUDIO\VC\TOOLS\MSVC\14.11.25503\INCLUDE\CFLOAT
C:\PROGRAM FILES (X86)\WINDOWS KITS\10\INCLUDE\10.0.16299.0\UCRT\FLOAT.H
E:\PROGRAMS\VISUAL-STUDIO\VC\TOOLS\MSVC\14.11.25503\INCLUDE\CLIMITS
E:\PROGRAMS\VISUAL-STUDIO\VC\TOOLS\MSVC\14.11.25503\INCLUDE\CMATH
E:\PROGRAMS\VISUAL-STUDIO\VC\TOOLS\MSVC\14.11.25503\INCLUDE\XTGMATH.H
E:\PROGRAMS\VISUAL-STUDIO\VC\TOOLS\MSVC\14.11.25503\INCLUDE\XTR1COMMON
E:\PROGRAMS\VISUAL-STUDIO\VC\TOOLS\MSVC\14.11.25503\INCLUDE\CWCHAR
C:\PROGRAM FILES (X86)\WINDOWS KITS\10\INCLUDE\10.0.16299.0\UCRT\WCHAR.H
C:\PROGRAM FILES (X86)\WINDOWS KITS\10\INCLUDE\10.0.16299.0\UCRT\CORECRT_MEMCPY_S.H
C:\PROGRAM FILES (X86)\WINDOWS KITS\10\INCLUDE\10.0.16299.0\UCRT\ERRNO.H
E:\PROGRAMS\VISUAL-STUDIO\VC\TOOLS\MSVC\14.11.25503\INCLUDE\VCRUNTIME_STRING.H
C:\PROGRAM FILES (X86)\WINDOWS KITS\10\INCLUDE\10.0.16299.0\UCRT\CORECRT_WCONIO.H
C:\PROGRAM FILES (X86)\WINDOWS KITS\10\INCLUDE\10.0.16299.0\UCRT\CORECRT_STDIO_CONFIG.H
C:\PROGRAM FILES (X86)\WINDOWS KITS\10\INCLUDE\10.0.16299.0\UCRT\CORECRT_WCTYPE.H
C:\PROGRAM FILES (X86)\WINDOWS KITS\10\INCLUDE\10.0.16299.0\UCRT\CORECRT_WDIRECT.H
C:\PROGRAM FILES (X86)\WINDOWS KITS\10\INCLUDE\10.0.16299.0\UCRT\CORECRT_WIO.H
C:\PROGRAM FILES (X86)\WINDOWS KITS\10\INCLUDE\10.0.16299.0\UCRT\CORECRT_SHARE.H
C:\PROGRAM FILES (X86)\WINDOWS KITS\10\INCLUDE\10.0.16299.0\UCRT\CORECRT_WPROCESS.H
C:\PROGRAM FILES (X86)\WINDOWS KITS\10\INCLUDE\10.0.16299.0\UCRT\CORECRT_WSTDIO.H
C:\PROGRAM FILES (X86)\WINDOWS KITS\10\INCLUDE\10.0.16299.0\UCRT\CORECRT_WSTRING.H
C:\PROGRAM FILES (X86)\WINDOWS KITS\10\INCLUDE\10.0.16299.0\UCRT\CORECRT_WTIME.H
C:\PROGRAM FILES (X86)\WINDOWS KITS\10\INCLUDE\10.0.16299.0\UCRT\SYS\STAT.H
C:\PROGRAM FILES (X86)\WINDOWS KITS\10\INCLUDE\10.0.16299.0\UCRT\SYS\TYPES.H
E:\PROGRAMS\VISUAL-STUDIO\VC\TOOLS\MSVC\14.11.25503\INCLUDE\XSTDDEF
E:\PROGRAMS\VISUAL-STUDIO\VC\TOOLS\MSVC\14.11.25503\INCLUDE\CSTDDEF
E:\PROGRAMS\VISUAL-STUDIO\VC\TOOLS\MSVC\14.11.25503\INCLUDE\INITIALIZER_LIST
E:\PROGRAMS\VISUAL-STUDIO\VC\TOOLS\MSVC\14.11.25503\INCLUDE\NEW
E:\PROGRAMS\VISUAL-STUDIO\VC\TOOLS\MSVC\14.11.25503\INCLUDE\EXCEPTION
E:\PROGRAMS\VISUAL-STUDIO\VC\TOOLS\MSVC\14.11.25503\INCLUDE\TYPE_TRAITS
C:\PROGRAM FILES (X86)\WINDOWS KITS\10\INCLUDE\10.0.16299.0\UCRT\MALLOC.H
E:\PROGRAMS\VISUAL-STUDIO\VC\TOOLS\MSVC\14.11.25503\INCLUDE\VCRUNTIME_EXCEPTION.H
E:\PROGRAMS\VISUAL-STUDIO\VC\TOOLS\MSVC\14.11.25503\INCLUDE\EH.H
C:\PROGRAM FILES (X86)\WINDOWS KITS\10\INCLUDE\10.0.16299.0\UCRT\CORECRT_TERMINATE.H
E:\PROGRAMS\VISUAL-STUDIO\VC\TOOLS\MSVC\14.11.25503\INCLUDE\VCRUNTIME_NEW.H
E:\PROGRAMS\VISUAL-STUDIO\VC\TOOLS\MSVC\14.11.25503\INCLUDE\XUTILITY
E:\PROGRAMS\VISUAL-STUDIO\VC\TOOLS\MSVC\14.11.25503\INCLUDE\UTILITY
E:\PROGRAMS\VISUAL-STUDIO\VC\TOOLS\MSVC\14.11.25503\INCLUDE\IOSFWD
E:\PROGRAMS\VISUAL-STUDIO\VC\TOOLS\MSVC\14.11.25503\INCLUDE\CSTDIO
C:\PROGRAM FILES (X86)\WINDOWS KITS\10\INCLUDE\10.0.16299.0\UCRT\STDIO.H
E:\PROGRAMS\VISUAL-STUDIO\VC\TOOLS\MSVC\14.11.25503\INCLUDE\CSTRING
C:\PROGRAM FILES (X86)\WINDOWS KITS\10\INCLUDE\10.0.16299.0\UCRT\STRING.H
C:\PROGRAM FILES (X86)\WINDOWS KITS\10\INCLUDE\10.0.16299.0\UCRT\CORECRT_MEMORY.H
C:\PROGRAM FILES (X86)\WINDOWS KITS\10\INCLUDE\10.0.16299.0\UCRT\CRTDBG.H
E:\PROGRAMS\VISUAL-STUDIO\VC\TOOLS\MSVC\14.11.25503\INCLUDE\VCRUNTIME_NEW_DEBUG.H
E:\PROGRAMS\VISUAL-STUDIO\VC\TOOLS\MSVC\14.11.25503\INCLUDE\XATOMIC0.H
E:\PROGRAMS\VISUAL-STUDIO\VC\TOOLS\MSVC\14.11.25503\INCLUDE\INTRIN0.H
E:\PROGRAMS\VISUAL-STUDIO\VC\TOOLS\MSVC\14.11.25503\INCLUDE\STDEXCEPT
E:\PROGRAMS\VISUAL-STUDIO\VC\TOOLS\MSVC\14.11.25503\INCLUDE\XSTRING
E:\PROGRAMS\VISUAL-STUDIO\VC\TOOLS\MSVC\14.11.25503\INCLUDE\STRING
E:\PROGRAMS\VISUAL-STUDIO\VC\TOOLS\MSVC\14.11.25503\INCLUDE\ISTREAM
E:\PROGRAMS\VISUAL-STUDIO\VC\TOOLS\MSVC\14.11.25503\INCLUDE\OSTREAM
E:\PROGRAMS\VISUAL-STUDIO\VC\TOOLS\MSVC\14.11.25503\INCLUDE\IOS
E:\PROGRAMS\VISUAL-STUDIO\VC\TOOLS\MSVC\14.11.25503\INCLUDE\XLOCNUM
E:\PROGRAMS\VISUAL-STUDIO\VC\TOOLS\MSVC\14.11.25503\INCLUDE\STREAMBUF
E:\PROGRAMS\VISUAL-STUDIO\VC\TOOLS\MSVC\14.11.25503\INCLUDE\XIOSBASE
E:\PROGRAMS\VISUAL-STUDIO\VC\TOOLS\MSVC\14.11.25503\INCLUDE\XLOCALE
E:\PROGRAMS\VISUAL-STUDIO\VC\TOOLS\MSVC\14.11.25503\INCLUDE\TYPEINFO
E:\PROGRAMS\VISUAL-STUDIO\VC\TOOLS\MSVC\14.11.25503\INCLUDE\VCRUNTIME_TYPEINFO.H
E:\PROGRAMS\VISUAL-STUDIO\VC\TOOLS\MSVC\14.11.25503\INCLUDE\XLOCINFO
E:\PROGRAMS\VISUAL-STUDIO\VC\TOOLS\MSVC\14.11.25503\INCLUDE\XLOCINFO.H
C:\PROGRAM FILES (X86)\WINDOWS KITS\10\INCLUDE\10.0.16299.0\UCRT\CTYPE.H
C:\PROGRAM FILES (X86)\WINDOWS KITS\10\INCLUDE\10.0.16299.0\UCRT\LOCALE.H
E:\PROGRAMS\VISUAL-STUDIO\VC\TOOLS\MSVC\14.11.25503\INCLUDE\XFACET
E:\PROGRAMS\VISUAL-STUDIO\VC\TOOLS\MSVC\14.11.25503\INCLUDE\SYSTEM_ERROR
E:\PROGRAMS\VISUAL-STUDIO\VC\TOOLS\MSVC\14.11.25503\INCLUDE\CERRNO
E:\PROGRAMS\VISUAL-STUDIO\VC\TOOLS\MSVC\14.11.25503\INCLUDE\XCALL_ONCE.H
C:\PROGRAM FILES (X86)\WINDOWS KITS\10\INCLUDE\10.0.16299.0\UCRT\SHARE.H
E:\PROGRAMS\VISUAL-STUDIO\VC\TOOLS\MSVC\14.11.25503\INCLUDE\XSTRING_INSERT.H
E:\CONSOLE-RPG\CONSOLE-RPG\CONSOLE-RPG\CONSOLE-RPG\ZOMBIE.H
E:\CONSOLE-RPG\CONSOLE-RPG\CONSOLE-RPG\CONSOLE-RPG\MONSTER.H
C:\PROGRAM FILES (X86)\WINDOWS KITS\10\INCLUDE\10.0.16299.0\UCRT\TIME.H
E:\CONSOLE-RPG\CONSOLE-RPG\CONSOLE-RPG\CONSOLE-RPG\SKELETON.H
E:\CONSOLE-RPG\CONSOLE-RPG\CONSOLE-RPG\CONSOLE-RPG\PLAYER.H
E:\PROGRAMS\VISUAL-STUDIO\VC\TOOLS\MSVC\14.11.25503\INCLUDE\IOSTREAM
C:\PROGRAM FILES (X86)\WINDOWS KITS\10\INCLUDE\10.0.16299.0\UCRT\CONIO.H
E:\PROGRAMS\VISUAL-STUDIO\VC\TOOLS\MSVC\14.11.25503\INCLUDE\RANDOM
E:\PROGRAMS\VISUAL-STUDIO\VC\TOOLS\MSVC\14.11.25503\INCLUDE\ALGORITHM
E:\PROGRAMS\VISUAL-STUDIO\VC\TOOLS\MSVC\14.11.25503\INCLUDE\MEMORY
^E:\CONSOLE-RPG\CONSOLE-RPG\CONSOLE-RPG\CONSOLE-RPG\GAME.CPP
E:\CONSOLE-RPG\CONSOLE-RPG\CONSOLE-RPG\CONSOLE-RPG\GAME.H
E:\CONSOLE-RPG\CONSOLE-RPG\CONSOLE-RPG\CONSOLE-RPG\BOARD.H
E:\PROGRAMS\VISUAL-STUDIO\VC\TOOLS\MSVC\14.11.25503\INCLUDE\VECTOR
E:\PROGRAMS\VISUAL-STUDIO\VC\TOOLS\MSVC\14.11.25503\INCLUDE\XMEMORY
E:\PROGRAMS\VISUAL-STUDIO\VC\TOOLS\MSVC\14.11.25503\INCLUDE\XMEMORY0
E:\PROGRAMS\VISUAL-STUDIO\VC\TOOLS\MSVC\14.11.25503\INCLUDE\CSTDINT
E:\PROGRAMS\VISUAL-STUDIO\VC\TOOLS\MSVC\14.11.25503\INCLUDE\YVALS.H
E:\PROGRAMS\VISUAL-STUDIO\VC\TOOLS\MSVC\14.11.25503\INCLUDE\XKEYCHECK.H
E:\PROGRAMS\VISUAL-STUDIO\VC\TOOLS\MSVC\14.11.25503\INCLUDE\CRTDEFS.H
E:\PROGRAMS\VISUAL-STUDIO\VC\TOOLS\MSVC\14.11.25503\INCLUDE\VCRUNTIME.H
E:\PROGRAMS\VISUAL-STUDIO\VC\TOOLS\MSVC\14.11.25503\INCLUDE\SAL.H
E:\PROGRAMS\VISUAL-STUDIO\VC\TOOLS\MSVC\14.11.25503\INCLUDE\CONCURRENCYSAL.H
E:\PROGRAMS\VISUAL-STUDIO\VC\TOOLS\MSVC\14.11.25503\INCLUDE\VADEFS.H
C:\PROGRAM FILES (X86)\WINDOWS KITS\10\INCLUDE\10.0.16299.0\UCRT\CORECRT.H
E:\PROGRAMS\VISUAL-STUDIO\VC\TOOLS\MSVC\14.11.25503\INCLUDE\USE_ANSI.H
E:\PROGRAMS\VISUAL-STUDIO\VC\TOOLS\MSVC\14.11.25503\INCLUDE\STDINT.H
E:\PROGRAMS\VISUAL-STUDIO\VC\TOOLS\MSVC\14.11.25503\INCLUDE\CSTDLIB
C:\PROGRAM FILES (X86)\WINDOWS KITS\10\INCLUDE\10.0.16299.0\UCRT\STDLIB.H
C:\PROGRAM FILES (X86)\WINDOWS KITS\10\INCLUDE\10.0.16299.0\UCRT\CORECRT_MALLOC.H
C:\PROGRAM FILES (X86)\WINDOWS KITS\10\INCLUDE\10.0.16299.0\UCRT\CORECRT_SEARCH.H
C:\PROGRAM FILES (X86)\WINDOWS KITS\10\INCLUDE\10.0.16299.0\UCRT\STDDEF.H
C:\PROGRAM FILES (X86)\WINDOWS KITS\10\INCLUDE\10.0.16299.0\UCRT\CORECRT_WSTDLIB.H
E:\PROGRAMS\VISUAL-STUDIO\VC\TOOLS\MSVC\14.11.25503\INCLUDE\LIMITS.H
C:\PROGRAM FILES (X86)\WINDOWS KITS\10\INCLUDE\10.0.16299.0\UCRT\MATH.H
C:\PROGRAM FILES (X86)\WINDOWS KITS\10\INCLUDE\10.0.16299.0\UCRT\CORECRT_MATH.H
E:\PROGRAMS\VISUAL-STUDIO\VC\TOOLS\MSVC\14.11.25503\INCLUDE\LIMITS
E:\PROGRAMS\VISUAL-STUDIO\VC\TOOLS\MSVC\14.11.25503\INCLUDE\YMATH.H
E:\PROGRAMS\VISUAL-STUDIO\VC\TOOLS\MSVC\14.11.25503\INCLUDE\CFLOAT
C:\PROGRAM FILES (X86)\WINDOWS KITS\10\INCLUDE\10.0.16299.0\UCRT\FLOAT.H
E:\PROGRAMS\VISUAL-STUDIO\VC\TOOLS\MSVC\14.11.25503\INCLUDE\CLIMITS
E:\PROGRAMS\VISUAL-STUDIO\VC\TOOLS\MSVC\14.11.25503\INCLUDE\CMATH
E:\PROGRAMS\VISUAL-STUDIO\VC\TOOLS\MSVC\14.11.25503\INCLUDE\XTGMATH.H
E:\PROGRAMS\VISUAL-STUDIO\VC\TOOLS\MSVC\14.11.25503\INCLUDE\XTR1COMMON
E:\PROGRAMS\VISUAL-STUDIO\VC\TOOLS\MSVC\14.11.25503\INCLUDE\CWCHAR
C:\PROGRAM FILES (X86)\WINDOWS KITS\10\INCLUDE\10.0.16299.0\UCRT\WCHAR.H
C:\PROGRAM FILES (X86)\WINDOWS KITS\10\INCLUDE\10.0.16299.0\UCRT\CORECRT_MEMCPY_S.H
C:\PROGRAM FILES (X86)\WINDOWS KITS\10\INCLUDE\10.0.16299.0\UCRT\ERRNO.H
E:\PROGRAMS\VISUAL-STUDIO\VC\TOOLS\MSVC\14.11.25503\INCLUDE\VCRUNTIME_STRING.H
C:\PROGRAM FILES (X86)\WINDOWS KITS\10\INCLUDE\10.0.16299.0\UCRT\CORECRT_WCONIO.H
C:\PROGRAM FILES (X86)\WINDOWS KITS\10\INCLUDE\10.0.16299.0\UCRT\CORECRT_STDIO_CONFIG.H
C:\PROGRAM FILES (X86)\WINDOWS KITS\10\INCLUDE\10.0.16299.0\UCRT\CORECRT_WCTYPE.H
C:\PROGRAM FILES (X86)\WINDOWS KITS\10\INCLUDE\10.0.16299.0\UCRT\CORECRT_WDIRECT.H
C:\PROGRAM FILES (X86)\WINDOWS KITS\10\INCLUDE\10.0.16299.0\UCRT\CORECRT_WIO.H
C:\PROGRAM FILES (X86)\WINDOWS KITS\10\INCLUDE\10.0.16299.0\UCRT\CORECRT_SHARE.H
C:\PROGRAM FILES (X86)\WINDOWS KITS\10\INCLUDE\10.0.16299.0\UCRT\CORECRT_WPROCESS.H
C:\PROGRAM FILES (X86)\WINDOWS KITS\10\INCLUDE\10.0.16299.0\UCRT\CORECRT_WSTDIO.H
C:\PROGRAM FILES (X86)\WINDOWS KITS\10\INCLUDE\10.0.16299.0\UCRT\CORECRT_WSTRING.H
C:\PROGRAM FILES (X86)\WINDOWS KITS\10\INCLUDE\10.0.16299.0\UCRT\CORECRT_WTIME.H
C:\PROGRAM FILES (X86)\WINDOWS KITS\10\INCLUDE\10.0.16299.0\UCRT\SYS\STAT.H
C:\PROGRAM FILES (X86)\WINDOWS KITS\10\INCLUDE\10.0.16299.0\UCRT\SYS\TYPES.H
E:\PROGRAMS\VISUAL-STUDIO\VC\TOOLS\MSVC\14.11.25503\INCLUDE\XSTDDEF
E:\PROGRAMS\VISUAL-STUDIO\VC\TOOLS\MSVC\14.11.25503\INCLUDE\CSTDDEF
E:\PROGRAMS\VISUAL-STUDIO\VC\TOOLS\MSVC\14.11.25503\INCLUDE\INITIALIZER_LIST
E:\PROGRAMS\VISUAL-STUDIO\VC\TOOLS\MSVC\14.11.25503\INCLUDE\NEW
E:\PROGRAMS\VISUAL-STUDIO\VC\TOOLS\MSVC\14.11.25503\INCLUDE\EXCEPTION
E:\PROGRAMS\VISUAL-STUDIO\VC\TOOLS\MSVC\14.11.25503\INCLUDE\TYPE_TRAITS
C:\PROGRAM FILES (X86)\WINDOWS KITS\10\INCLUDE\10.0.16299.0\UCRT\MALLOC.H
E:\PROGRAMS\VISUAL-STUDIO\VC\TOOLS\MSVC\14.11.25503\INCLUDE\VCRUNTIME_EXCEPTION.H
E:\PROGRAMS\VISUAL-STUDIO\VC\TOOLS\MSVC\14.11.25503\INCLUDE\EH.H
C:\PROGRAM FILES (X86)\WINDOWS KITS\10\INCLUDE\10.0.16299.0\UCRT\CORECRT_TERMINATE.H
E:\PROGRAMS\VISUAL-STUDIO\VC\TOOLS\MSVC\14.11.25503\INCLUDE\VCRUNTIME_NEW.H
E:\PROGRAMS\VISUAL-STUDIO\VC\TOOLS\MSVC\14.11.25503\INCLUDE\XUTILITY
E:\PROGRAMS\VISUAL-STUDIO\VC\TOOLS\MSVC\14.11.25503\INCLUDE\UTILITY
E:\PROGRAMS\VISUAL-STUDIO\VC\TOOLS\MSVC\14.11.25503\INCLUDE\IOSFWD
E:\PROGRAMS\VISUAL-STUDIO\VC\TOOLS\MSVC\14.11.25503\INCLUDE\CSTDIO
C:\PROGRAM FILES (X86)\WINDOWS KITS\10\INCLUDE\10.0.16299.0\UCRT\STDIO.H
E:\PROGRAMS\VISUAL-STUDIO\VC\TOOLS\MSVC\14.11.25503\INCLUDE\CSTRING
C:\PROGRAM FILES (X86)\WINDOWS KITS\10\INCLUDE\10.0.16299.0\UCRT\STRING.H
C:\PROGRAM FILES (X86)\WINDOWS KITS\10\INCLUDE\10.0.16299.0\UCRT\CORECRT_MEMORY.H
C:\PROGRAM FILES (X86)\WINDOWS KITS\10\INCLUDE\10.0.16299.0\UCRT\CRTDBG.H
E:\PROGRAMS\VISUAL-STUDIO\VC\TOOLS\MSVC\14.11.25503\INCLUDE\VCRUNTIME_NEW_DEBUG.H
E:\PROGRAMS\VISUAL-STUDIO\VC\TOOLS\MSVC\14.11.25503\INCLUDE\XATOMIC0.H
E:\PROGRAMS\VISUAL-STUDIO\VC\TOOLS\MSVC\14.11.25503\INCLUDE\INTRIN0.H
E:\PROGRAMS\VISUAL-STUDIO\VC\TOOLS\MSVC\14.11.25503\INCLUDE\STDEXCEPT
E:\PROGRAMS\VISUAL-STUDIO\VC\TOOLS\MSVC\14.11.25503\INCLUDE\XSTRING
E:\PROGRAMS\VISUAL-STUDIO\VC\TOOLS\MSVC\14.11.25503\INCLUDE\STRING
E:\PROGRAMS\VISUAL-STUDIO\VC\TOOLS\MSVC\14.11.25503\INCLUDE\ISTREAM
E:\PROGRAMS\VISUAL-STUDIO\VC\TOOLS\MSVC\14.11.25503\INCLUDE\OSTREAM
E:\PROGRAMS\VISUAL-STUDIO\VC\TOOLS\MSVC\14.11.25503\INCLUDE\IOS
E:\PROGRAMS\VISUAL-STUDIO\VC\TOOLS\MSVC\14.11.25503\INCLUDE\XLOCNUM
E:\PROGRAMS\VISUAL-STUDIO\VC\TOOLS\MSVC\14.11.25503\INCLUDE\STREAMBUF
E:\PROGRAMS\VISUAL-STUDIO\VC\TOOLS\MSVC\14.11.25503\INCLUDE\XIOSBASE
E:\PROGRAMS\VISUAL-STUDIO\VC\TOOLS\MSVC\14.11.25503\INCLUDE\XLOCALE
E:\PROGRAMS\VISUAL-STUDIO\VC\TOOLS\MSVC\14.11.25503\INCLUDE\TYPEINFO
E:\PROGRAMS\VISUAL-STUDIO\VC\TOOLS\MSVC\14.11.25503\INCLUDE\VCRUNTIME_TYPEINFO.H
E:\PROGRAMS\VISUAL-STUDIO\VC\TOOLS\MSVC\14.11.25503\INCLUDE\XLOCINFO
E:\PROGRAMS\VISUAL-STUDIO\VC\TOOLS\MSVC\14.11.25503\INCLUDE\XLOCINFO.H
C:\PROGRAM FILES (X86)\WINDOWS KITS\10\INCLUDE\10.0.16299.0\UCRT\CTYPE.H
C:\PROGRAM FILES (X86)\WINDOWS KITS\10\INCLUDE\10.0.16299.0\UCRT\LOCALE.H
E:\PROGRAMS\VISUAL-STUDIO\VC\TOOLS\MSVC\14.11.25503\INCLUDE\XFACET
E:\PROGRAMS\VISUAL-STUDIO\VC\TOOLS\MSVC\14.11.25503\INCLUDE\SYSTEM_ERROR
E:\PROGRAMS\VISUAL-STUDIO\VC\TOOLS\MSVC\14.11.25503\INCLUDE\CERRNO
E:\PROGRAMS\VISUAL-STUDIO\VC\TOOLS\MSVC\14.11.25503\INCLUDE\XCALL_ONCE.H
C:\PROGRAM FILES (X86)\WINDOWS KITS\10\INCLUDE\10.0.16299.0\UCRT\SHARE.H
E:\PROGRAMS\VISUAL-STUDIO\VC\TOOLS\MSVC\14.11.25503\INCLUDE\XSTRING_INSERT.H
E:\CONSOLE-RPG\CONSOLE-RPG\CONSOLE-RPG\CONSOLE-RPG\ZOMBIE.H
E:\CONSOLE-RPG\CONSOLE-RPG\CONSOLE-RPG\CONSOLE-RPG\MONSTER.H
C:\PROGRAM FILES (X86)\WINDOWS KITS\10\INCLUDE\10.0.16299.0\UCRT\TIME.H
E:\CONSOLE-RPG\CONSOLE-RPG\CONSOLE-RPG\CONSOLE-RPG\SKELETON.H
E:\CONSOLE-RPG\CONSOLE-RPG\CONSOLE-RPG\CONSOLE-RPG\PLAYER.H
E:\PROGRAMS\VISUAL-STUDIO\VC\TOOLS\MSVC\14.11.25503\INCLUDE\IOSTREAM
C:\PROGRAM FILES (X86)\WINDOWS KITS\10\INCLUDE\10.0.16299.0\UCRT\CONIO.H
E:\PROGRAMS\VISUAL-STUDIO\VC\TOOLS\MSVC\14.11.25503\INCLUDE\RANDOM
E:\PROGRAMS\VISUAL-STUDIO\VC\TOOLS\MSVC\14.11.25503\INCLUDE\ALGORITHM
C:\PROGRAM FILES (X86)\WINDOWS KITS\10\INCLUDE\10.0.16299.0\UM\WINDOWS.H
C:\PROGRAM FILES (X86)\WINDOWS KITS\10\INCLUDE\10.0.16299.0\SHARED\WINAPIFAMILY.H
C:\PROGRAM FILES (X86)\WINDOWS KITS\10\INCLUDE\10.0.16299.0\SHARED\WINPACKAGEFAMILY.H
C:\PROGRAM FILES (X86)\WINDOWS KITS\10\INCLUDE\10.0.16299.0\SHARED\SDKDDKVER.H
E:\PROGRAMS\VISUAL-STUDIO\VC\TOOLS\MSVC\14.11.25503\INCLUDE\EXCPT.H
E:\PROGRAMS\VISUAL-STUDIO\VC\TOOLS\MSVC\14.11.25503\INCLUDE\STDARG.H
C:\PROGRAM FILES (X86)\WINDOWS KITS\10\INCLUDE\10.0.16299.0\SHARED\WINDEF.H
C:\PROGRAM FILES (X86)\WINDOWS KITS\10\INCLUDE\10.0.16299.0\SHARED\MINWINDEF.H
C:\PROGRAM FILES (X86)\WINDOWS KITS\10\INCLUDE\10.0.16299.0\SHARED\SPECSTRINGS.H
C:\PROGRAM FILES (X86)\WINDOWS KITS\10\INCLUDE\10.0.16299.0\SHARED\SPECSTRINGS_STRICT.H
C:\PROGRAM FILES (X86)\WINDOWS KITS\10\INCLUDE\10.0.16299.0\SHARED\SPECSTRINGS_UNDEF.H
C:\PROGRAM FILES (X86)\WINDOWS KITS\10\INCLUDE\10.0.16299.0\SHARED\DRIVERSPECS.H
C:\PROGRAM FILES (X86)\WINDOWS KITS\10\INCLUDE\10.0.16299.0\SHARED\SDV_DRIVERSPECS.H
C:\PROGRAM FILES (X86)\WINDOWS KITS\10\INCLUDE\10.0.16299.0\UM\WINNT.H
C:\PROGRAM FILES (X86)\WINDOWS KITS\10\INCLUDE\10.0.16299.0\SHARED\KERNELSPECS.H
C:\PROGRAM FILES (X86)\WINDOWS KITS\10\INCLUDE\10.0.16299.0\SHARED\BASETSD.H
C:\PROGRAM FILES (X86)\WINDOWS KITS\10\INCLUDE\10.0.16299.0\SHARED\GUIDDEF.H
C:\PROGRAM FILES (X86)\WINDOWS KITS\10\INCLUDE\10.0.16299.0\SHARED\PSHPACK4.H
C:\PROGRAM FILES (X86)\WINDOWS KITS\10\INCLUDE\10.0.16299.0\SHARED\POPPACK.H
C:\PROGRAM FILES (X86)\WINDOWS KITS\10\INCLUDE\10.0.16299.0\SHARED\PSHPACK2.H
C:\PROGRAM FILES (X86)\WINDOWS KITS\10\INCLUDE\10.0.16299.0\SHARED\PSHPACK8.H
C:\PROGRAM FILES (X86)\WINDOWS KITS\10\INCLUDE\10.0.16299.0\SHARED\PSHPACK1.H
C:\PROGRAM FILES (X86)\WINDOWS KITS\10\INCLUDE\10.0.16299.0\SHARED\APISET.H
C:\PROGRAM FILES (X86)\WINDOWS KITS\10\INCLUDE\10.0.16299.0\SHARED\KTMTYPES.H
C:\PROGRAM FILES (X86)\WINDOWS KITS\10\INCLUDE\10.0.16299.0\UM\WINBASE.H
C:\PROGRAM FILES (X86)\WINDOWS KITS\10\INCLUDE\10.0.16299.0\SHARED\APISETCCONV.H
C:\PROGRAM FILES (X86)\WINDOWS KITS\10\INCLUDE\10.0.16299.0\UM\MINWINBASE.H
C:\PROGRAM FILES (X86)\WINDOWS KITS\10\INCLUDE\10.0.16299.0\UM\PROCESSENV.H
C:\PROGRAM FILES (X86)\WINDOWS KITS\10\INCLUDE\10.0.16299.0\UM\FILEAPI.H
C:\PROGRAM FILES (X86)\WINDOWS KITS\10\INCLUDE\10.0.16299.0\UM\DEBUGAPI.H
C:\PROGRAM FILES (X86)\WINDOWS KITS\10\INCLUDE\10.0.16299.0\UM\UTILAPISET.H
C:\PROGRAM FILES (X86)\WINDOWS KITS\10\INCLUDE\10.0.16299.0\UM\HANDLEAPI.H
C:\PROGRAM FILES (X86)\WINDOWS KITS\10\INCLUDE\10.0.16299.0\UM\ERRHANDLINGAPI.H
C:\PROGRAM FILES (X86)\WINDOWS KITS\10\INCLUDE\10.0.16299.0\UM\FIBERSAPI.H
C:\PROGRAM FILES (X86)\WINDOWS KITS\10\INCLUDE\10.0.16299.0\UM\NAMEDPIPEAPI.H
C:\PROGRAM FILES (X86)\WINDOWS KITS\10\INCLUDE\10.0.16299.0\UM\PROFILEAPI.H
C:\PROGRAM FILES (X86)\WINDOWS KITS\10\INCLUDE\10.0.16299.0\UM\HEAPAPI.H
C:\PROGRAM FILES (X86)\WINDOWS KITS\10\INCLUDE\10.0.16299.0\UM\IOAPISET.H
C:\PROGRAM FILES (X86)\WINDOWS KITS\10\INCLUDE\10.0.16299.0\UM\SYNCHAPI.H
C:\PROGRAM FILES (X86)\WINDOWS KITS\10\INCLUDE\10.0.16299.0\UM\INTERLOCKEDAPI.H
C:\PROGRAM FILES (X86)\WINDOWS KITS\10\INCLUDE\10.0.16299.0\UM\PROCESSTHREADSAPI.H
C:\PROGRAM FILES (X86)\WINDOWS KITS\10\INCLUDE\10.0.16299.0\UM\SYSINFOAPI.H
C:\PROGRAM FILES (X86)\WINDOWS KITS\10\INCLUDE\10.0.16299.0\UM\MEMORYAPI.H
C:\PROGRAM FILES (X86)\WINDOWS KITS\10\INCLUDE\10.0.16299.0\UM\ENCLAVEAPI.H
C:\PROGRAM FILES (X86)\WINDOWS KITS\10\INCLUDE\10.0.16299.0\UM\THREADPOOLLEGACYAPISET.H
C:\PROGRAM FILES (X86)\WINDOWS KITS\10\INCLUDE\10.0.16299.0\UM\THREADPOOLAPISET.H
C:\PROGRAM FILES (X86)\WINDOWS KITS\10\INCLUDE\10.0.16299.0\UM\JOBAPI.H
C:\PROGRAM FILES (X86)\WINDOWS KITS\10\INCLUDE\10.0.16299.0\UM\JOBAPI2.H
C:\PROGRAM FILES (X86)\WINDOWS KITS\10\INCLUDE\10.0.16299.0\UM\WOW64APISET.H
C:\PROGRAM FILES (X86)\WINDOWS KITS\10\INCLUDE\10.0.16299.0\UM\LIBLOADERAPI.H
C:\PROGRAM FILES (X86)\WINDOWS KITS\10\INCLUDE\10.0.16299.0\UM\SECURITYBASEAPI.H
C:\PROGRAM FILES (X86)\WINDOWS KITS\10\INCLUDE\10.0.16299.0\UM\NAMESPACEAPI.H
C:\PROGRAM FILES (X86)\WINDOWS KITS\10\INCLUDE\10.0.16299.0\UM\SYSTEMTOPOLOGYAPI.H
C:\PROGRAM FILES (X86)\WINDOWS KITS\10\INCLUDE\10.0.16299.0\UM\PROCESSTOPOLOGYAPI.H
C:\PROGRAM FILES (X86)\WINDOWS KITS\10\INCLUDE\10.0.16299.0\UM\SECURITYAPPCONTAINER.H
C:\PROGRAM FILES (X86)\WINDOWS KITS\10\INCLUDE\10.0.16299.0\UM\REALTIMEAPISET.H
C:\PROGRAM FILES (X86)\WINDOWS KITS\10\INCLUDE\10.0.16299.0\SHARED\WINERROR.H
C:\PROGRAM FILES (X86)\WINDOWS KITS\10\INCLUDE\10.0.16299.0\UM\TIMEZONEAPI.H
C:\PROGRAM FILES (X86)\WINDOWS KITS\10\INCLUDE\10.0.16299.0\UM\WINGDI.H
C:\PROGRAM FILES (X86)\WINDOWS KITS\10\INCLUDE\10.0.16299.0\UM\WINUSER.H
C:\PROGRAM FILES (X86)\WINDOWS KITS\10\INCLUDE\10.0.16299.0\SHARED\TVOUT.H
C:\PROGRAM FILES (X86)\WINDOWS KITS\10\INCLUDE\10.0.16299.0\UM\WINNLS.H
C:\PROGRAM FILES (X86)\WINDOWS KITS\10\INCLUDE\10.0.16299.0\UM\DATETIMEAPI.H
C:\PROGRAM FILES (X86)\WINDOWS KITS\10\INCLUDE\10.0.16299.0\UM\STRINGAPISET.H
C:\PROGRAM FILES (X86)\WINDOWS KITS\10\INCLUDE\10.0.16299.0\UM\WINCON.H
C:\PROGRAM FILES (X86)\WINDOWS KITS\10\INCLUDE\10.0.16299.0\UM\CONSOLEAPI.H
C:\PROGRAM FILES (X86)\WINDOWS KITS\10\INCLUDE\10.0.16299.0\UM\WINVER.H
C:\PROGRAM FILES (X86)\WINDOWS KITS\10\INCLUDE\10.0.16299.0\UM\VERRSRC.H
C:\PROGRAM FILES (X86)\WINDOWS KITS\10\INCLUDE\10.0.16299.0\UM\WINREG.H
C:\PROGRAM FILES (X86)\WINDOWS KITS\10\INCLUDE\10.0.16299.0\UM\REASON.H
C:\PROGRAM FILES (X86)\WINDOWS KITS\10\INCLUDE\10.0.16299.0\UM\WINNETWK.H
C:\PROGRAM FILES (X86)\WINDOWS KITS\10\INCLUDE\10.0.16299.0\SHARED\WNNC.H
C:\PROGRAM FILES (X86)\WINDOWS KITS\10\INCLUDE\10.0.16299.0\SHARED\CDERR.H
C:\PROGRAM FILES (X86)\WINDOWS KITS\10\INCLUDE\10.0.16299.0\UM\DDE.H
C:\PROGRAM FILES (X86)\WINDOWS KITS\10\INCLUDE\10.0.16299.0\UM\DDEML.H
C:\PROGRAM FILES (X86)\WINDOWS KITS\10\INCLUDE\10.0.16299.0\UM\DLGS.H
C:\PROGRAM FILES (X86)\WINDOWS KITS\10\INCLUDE\10.0.16299.0\UM\LZEXPAND.H
C:\PROGRAM FILES (X86)\WINDOWS KITS\10\INCLUDE\10.0.16299.0\UM\MMSYSTEM.H
C:\PROGRAM FILES (X86)\WINDOWS KITS\10\INCLUDE\10.0.16299.0\UM\MMSYSCOM.H
C:\PROGRAM FILES (X86)\WINDOWS KITS\10\INCLUDE\10.0.16299.0\UM\MCIAPI.H
C:\PROGRAM FILES (X86)\WINDOWS KITS\10\INCLUDE\10.0.16299.0\UM\MMISCAPI.H
C:\PROGRAM FILES (X86)\WINDOWS KITS\10\INCLUDE\10.0.16299.0\UM\MMISCAPI2.H
C:\PROGRAM FILES (X86)\WINDOWS KITS\10\INCLUDE\10.0.16299.0\UM\PLAYSOUNDAPI.H
C:\PROGRAM FILES (X86)\WINDOWS KITS\10\INCLUDE\10.0.16299.0\UM\MMEAPI.H
C:\PROGRAM FILES (X86)\WINDOWS KITS\10\INCLUDE\10.0.16299.0\UM\TIMEAPI.H
C:\PROGRAM FILES (X86)\WINDOWS KITS\10\INCLUDE\10.0.16299.0\UM\JOYSTICKAPI.H
C:\PROGRAM FILES (X86)\WINDOWS KITS\10\INCLUDE\10.0.16299.0\UM\NB30.H
C:\PROGRAM FILES (X86)\WINDOWS KITS\10\INCLUDE\10.0.16299.0\SHARED\RPC.H
C:\PROGRAM FILES (X86)\WINDOWS KITS\10\INCLUDE\10.0.16299.0\SHARED\RPCDCE.H
C:\PROGRAM FILES (X86)\WINDOWS KITS\10\INCLUDE\10.0.16299.0\SHARED\RPCDCEP.H
C:\PROGRAM FILES (X86)\WINDOWS KITS\10\INCLUDE\10.0.16299.0\UM\RPCNSI.H
C:\PROGRAM FILES (X86)\WINDOWS KITS\10\INCLUDE\10.0.16299.0\SHARED\RPCNTERR.H
C:\PROGRAM FILES (X86)\WINDOWS KITS\10\INCLUDE\10.0.16299.0\SHARED\RPCASYNC.H
C:\PROGRAM FILES (X86)\WINDOWS KITS\10\INCLUDE\10.0.16299.0\UM\SHELLAPI.H
C:\PROGRAM FILES (X86)\WINDOWS KITS\10\INCLUDE\10.0.16299.0\UM\WINPERF.H
C:\PROGRAM FILES (X86)\WINDOWS KITS\10\INCLUDE\10.0.16299.0\UM\WINSOCK.H
C:\PROGRAM FILES (X86)\WINDOWS KITS\10\INCLUDE\10.0.16299.0\SHARED\INADDR.H
C:\PROGRAM FILES (X86)\WINDOWS KITS\10\INCLUDE\10.0.16299.0\UM\WINCRYPT.H
C:\PROGRAM FILES (X86)\WINDOWS KITS\10\INCLUDE\10.0.16299.0\SHARED\BCRYPT.H
C:\PROGRAM FILES (X86)\WINDOWS KITS\10\INCLUDE\10.0.16299.0\UM\NCRYPT.H
C:\PROGRAM FILES (X86)\WINDOWS KITS\10\INCLUDE\10.0.16299.0\UM\DPAPI.H
C:\PROGRAM FILES (X86)\WINDOWS KITS\10\INCLUDE\10.0.16299.0\UM\WINEFS.H
C:\PROGRAM FILES (X86)\WINDOWS KITS\10\INCLUDE\10.0.16299.0\UM\WINSCARD.H
C:\PROGRAM FILES (X86)\WINDOWS KITS\10\INCLUDE\10.0.16299.0\SHARED\WTYPES.H
C:\PROGRAM FILES (X86)\WINDOWS KITS\10\INCLUDE\10.0.16299.0\SHARED\RPCNDR.H
C:\PROGRAM FILES (X86)\WINDOWS KITS\10\INCLUDE\10.0.16299.0\UM\RPCNSIP.H
C:\PROGRAM FILES (X86)\WINDOWS KITS\10\INCLUDE\10.0.16299.0\SHARED\RPCSAL.H
C:\PROGRAM FILES (X86)\WINDOWS KITS\10\INCLUDE\10.0.16299.0\SHARED\WTYPESBASE.H
C:\PROGRAM FILES (X86)\WINDOWS KITS\10\INCLUDE\10.0.16299.0\UM\WINIOCTL.H
C:\PROGRAM FILES (X86)\WINDOWS KITS\10\INCLUDE\10.0.16299.0\SHARED\WINSMCRD.H
C:\PROGRAM FILES (X86)\WINDOWS KITS\10\INCLUDE\10.0.16299.0\UM\WINSPOOL.H
C:\PROGRAM FILES (X86)\WINDOWS KITS\10\INCLUDE\10.0.16299.0\UM\PRSHT.H
C:\PROGRAM FILES (X86)\WINDOWS KITS\10\INCLUDE\10.0.16299.0\UM\OLE2.H
C:\PROGRAM FILES (X86)\WINDOWS KITS\10\INCLUDE\10.0.16299.0\UM\OBJBASE.H
C:\PROGRAM FILES (X86)\WINDOWS KITS\10\INCLUDE\10.0.16299.0\UM\COMBASEAPI.H
C:\PROGRAM FILES (X86)\WINDOWS KITS\10\INCLUDE\10.0.16299.0\UM\UNKNWNBASE.H
C:\PROGRAM FILES (X86)\WINDOWS KITS\10\INCLUDE\10.0.16299.0\UM\OBJIDLBASE.H
C:\PROGRAM FILES (X86)\WINDOWS KITS\10\INCLUDE\10.0.16299.0\UM\CGUID.H
C:\PROGRAM FILES (X86)\WINDOWS KITS\10\INCLUDE\10.0.16299.0\UM\COML2API.H
C:\PROGRAM FILES (X86)\WINDOWS KITS\10\INCLUDE\10.0.16299.0\UM\OBJIDL.H
C:\PROGRAM FILES (X86)\WINDOWS KITS\10\INCLUDE\10.0.16299.0\UM\UNKNWN.H
C:\PROGRAM FILES (X86)\WINDOWS KITS\10\INCLUDE\10.0.16299.0\UM\PROPIDLBASE.H
C:\PROGRAM FILES (X86)\WINDOWS KITS\10\INCLUDE\10.0.16299.0\UM\OAIDL.H
C:\PROGRAM FILES (X86)\WINDOWS KITS\10\INCLUDE\10.0.16299.0\UM\URLMON.H
C:\PROGRAM FILES (X86)\WINDOWS KITS\10\INCLUDE\10.0.16299.0\UM\OLEIDL.H
C:\PROGRAM FILES (X86)\WINDOWS KITS\10\INCLUDE\10.0.16299.0\UM\SERVPROV.H
C:\PROGRAM FILES (X86)\WINDOWS KITS\10\INCLUDE\10.0.16299.0\UM\MSXML.H
C:\PROGRAM FILES (X86)\WINDOWS KITS\10\INCLUDE\10.0.16299.0\UM\PROPIDL.H
C:\PROGRAM FILES (X86)\WINDOWS KITS\10\INCLUDE\10.0.16299.0\UM\OLEAUTO.H
C:\PROGRAM FILES (X86)\WINDOWS KITS\10\INCLUDE\10.0.16299.0\UM\COMMDLG.H
C:\PROGRAM FILES (X86)\WINDOWS KITS\10\INCLUDE\10.0.16299.0\SHARED\STRALIGN.H
C:\PROGRAM FILES (X86)\WINDOWS KITS\10\INCLUDE\10.0.16299.0\UM\WINSVC.H
C:\PROGRAM FILES (X86)\WINDOWS KITS\10\INCLUDE\10.0.16299.0\UM\MCX.H
C:\PROGRAM FILES (X86)\WINDOWS KITS\10\INCLUDE\10.0.16299.0\UM\IMM.H
C:\PROGRAM FILES (X86)\WINDOWS KITS\10\INCLUDE\10.0.16299.0\UM\IME_CMODES.H
C:\WINDOWS\GLOBALIZATION\SORTING\SORTDEFAULT.NLS
E:\PROGRAMS\VISUAL-STUDIO\VC\TOOLS\MSVC\14.11.25503\BIN\HOSTX86\X86\1033\CLUI.DLL
E:\PROGRAMS\VISUAL-STUDIO\VC\TOOLS\MSVC\14.11.25503\BIN\HOSTX86\X86\MSPDBSRV.EXE
C:\WINDOWS\SYSTEM32\TZRES.DLL
E:\PROGRAMS\VISUAL-STUDIO\VC\TOOLS\MSVC\14.11.25503\INCLUDE\MEMORY
^E:\CONSOLE-RPG\CONSOLE-RPG\CONSOLE-RPG\CONSOLE-RPG\BOARD.CPP
E:\CONSOLE-RPG\CONSOLE-RPG\CONSOLE-RPG\CONSOLE-RPG\BOARD.H
E:\PROGRAMS\VISUAL-STUDIO\VC\TOOLS\MSVC\14.11.25503\INCLUDE\VECTOR
E:\PROGRAMS\VISUAL-STUDIO\VC\TOOLS\MSVC\14.11.25503\INCLUDE\XMEMORY
E:\PROGRAMS\VISUAL-STUDIO\VC\TOOLS\MSVC\14.11.25503\INCLUDE\XMEMORY0
E:\PROGRAMS\VISUAL-STUDIO\VC\TOOLS\MSVC\14.11.25503\INCLUDE\CSTDINT
E:\PROGRAMS\VISUAL-STUDIO\VC\TOOLS\MSVC\14.11.25503\INCLUDE\YVALS.H
E:\PROGRAMS\VISUAL-STUDIO\VC\TOOLS\MSVC\14.11.25503\INCLUDE\XKEYCHECK.H
E:\PROGRAMS\VISUAL-STUDIO\VC\TOOLS\MSVC\14.11.25503\INCLUDE\CRTDEFS.H
E:\PROGRAMS\VISUAL-STUDIO\VC\TOOLS\MSVC\14.11.25503\INCLUDE\VCRUNTIME.H
E:\PROGRAMS\VISUAL-STUDIO\VC\TOOLS\MSVC\14.11.25503\INCLUDE\SAL.H
E:\PROGRAMS\VISUAL-STUDIO\VC\TOOLS\MSVC\14.11.25503\INCLUDE\CONCURRENCYSAL.H
E:\PROGRAMS\VISUAL-STUDIO\VC\TOOLS\MSVC\14.11.25503\INCLUDE\VADEFS.H
C:\PROGRAM FILES (X86)\WINDOWS KITS\10\INCLUDE\10.0.16299.0\UCRT\CORECRT.H
E:\PROGRAMS\VISUAL-STUDIO\VC\TOOLS\MSVC\14.11.25503\INCLUDE\USE_ANSI.H
E:\PROGRAMS\VISUAL-STUDIO\VC\TOOLS\MSVC\14.11.25503\INCLUDE\STDINT.H
E:\PROGRAMS\VISUAL-STUDIO\VC\TOOLS\MSVC\14.11.25503\INCLUDE\CSTDLIB
C:\PROGRAM FILES (X86)\WINDOWS KITS\10\INCLUDE\10.0.16299.0\UCRT\STDLIB.H
C:\PROGRAM FILES (X86)\WINDOWS KITS\10\INCLUDE\10.0.16299.0\UCRT\CORECRT_MALLOC.H
C:\PROGRAM FILES (X86)\WINDOWS KITS\10\INCLUDE\10.0.16299.0\UCRT\CORECRT_SEARCH.H
C:\PROGRAM FILES (X86)\WINDOWS KITS\10\INCLUDE\10.0.16299.0\UCRT\STDDEF.H
C:\PROGRAM FILES (X86)\WINDOWS KITS\10\INCLUDE\10.0.16299.0\UCRT\CORECRT_WSTDLIB.H
E:\PROGRAMS\VISUAL-STUDIO\VC\TOOLS\MSVC\14.11.25503\INCLUDE\LIMITS.H
C:\PROGRAM FILES (X86)\WINDOWS KITS\10\INCLUDE\10.0.16299.0\UCRT\MATH.H
C:\PROGRAM FILES (X86)\WINDOWS KITS\10\INCLUDE\10.0.16299.0\UCRT\CORECRT_MATH.H
E:\PROGRAMS\VISUAL-STUDIO\VC\TOOLS\MSVC\14.11.25503\INCLUDE\LIMITS
E:\PROGRAMS\VISUAL-STUDIO\VC\TOOLS\MSVC\14.11.25503\INCLUDE\YMATH.H
E:\PROGRAMS\VISUAL-STUDIO\VC\TOOLS\MSVC\14.11.25503\INCLUDE\CFLOAT
C:\PROGRAM FILES (X86)\WINDOWS KITS\10\INCLUDE\10.0.16299.0\UCRT\FLOAT.H
E:\PROGRAMS\VISUAL-STUDIO\VC\TOOLS\MSVC\14.11.25503\INCLUDE\CLIMITS
E:\PROGRAMS\VISUAL-STUDIO\VC\TOOLS\MSVC\14.11.25503\INCLUDE\CMATH
E:\PROGRAMS\VISUAL-STUDIO\VC\TOOLS\MSVC\14.11.25503\INCLUDE\XTGMATH.H
E:\PROGRAMS\VISUAL-STUDIO\VC\TOOLS\MSVC\14.11.25503\INCLUDE\XTR1COMMON
E:\PROGRAMS\VISUAL-STUDIO\VC\TOOLS\MSVC\14.11.25503\INCLUDE\CWCHAR
C:\PROGRAM FILES (X86)\WINDOWS KITS\10\INCLUDE\10.0.16299.0\UCRT\WCHAR.H
C:\PROGRAM FILES (X86)\WINDOWS KITS\10\INCLUDE\10.0.16299.0\UCRT\CORECRT_MEMCPY_S.H
C:\PROGRAM FILES (X86)\WINDOWS KITS\10\INCLUDE\10.0.16299.0\UCRT\ERRNO.H
E:\PROGRAMS\VISUAL-STUDIO\VC\TOOLS\MSVC\14.11.25503\INCLUDE\VCRUNTIME_STRING.H
C:\PROGRAM FILES (X86)\WINDOWS KITS\10\INCLUDE\10.0.16299.0\UCRT\CORECRT_WCONIO.H
C:\PROGRAM FILES (X86)\WINDOWS KITS\10\INCLUDE\10.0.16299.0\UCRT\CORECRT_STDIO_CONFIG.H
C:\PROGRAM FILES (X86)\WINDOWS KITS\10\INCLUDE\10.0.16299.0\UCRT\CORECRT_WCTYPE.H
C:\PROGRAM FILES (X86)\WINDOWS KITS\10\INCLUDE\10.0.16299.0\UCRT\CORECRT_WDIRECT.H
C:\PROGRAM FILES (X86)\WINDOWS KITS\10\INCLUDE\10.0.16299.0\UCRT\CORECRT_WIO.H
C:\PROGRAM FILES (X86)\WINDOWS KITS\10\INCLUDE\10.0.16299.0\UCRT\CORECRT_SHARE.H
C:\PROGRAM FILES (X86)\WINDOWS KITS\10\INCLUDE\10.0.16299.0\UCRT\CORECRT_WPROCESS.H
C:\PROGRAM FILES (X86)\WINDOWS KITS\10\INCLUDE\10.0.16299.0\UCRT\CORECRT_WSTDIO.H
C:\PROGRAM FILES (X86)\WINDOWS KITS\10\INCLUDE\10.0.16299.0\UCRT\CORECRT_WSTRING.H
C:\PROGRAM FILES (X86)\WINDOWS KITS\10\INCLUDE\10.0.16299.0\UCRT\CORECRT_WTIME.H
C:\PROGRAM FILES (X86)\WINDOWS KITS\10\INCLUDE\10.0.16299.0\UCRT\SYS\STAT.H
C:\PROGRAM FILES (X86)\WINDOWS KITS\10\INCLUDE\10.0.16299.0\UCRT\SYS\TYPES.H
E:\PROGRAMS\VISUAL-STUDIO\VC\TOOLS\MSVC\14.11.25503\INCLUDE\XSTDDEF
E:\PROGRAMS\VISUAL-STUDIO\VC\TOOLS\MSVC\14.11.25503\INCLUDE\CSTDDEF
E:\PROGRAMS\VISUAL-STUDIO\VC\TOOLS\MSVC\14.11.25503\INCLUDE\INITIALIZER_LIST
E:\PROGRAMS\VISUAL-STUDIO\VC\TOOLS\MSVC\14.11.25503\INCLUDE\NEW
E:\PROGRAMS\VISUAL-STUDIO\VC\TOOLS\MSVC\14.11.25503\INCLUDE\EXCEPTION
E:\PROGRAMS\VISUAL-STUDIO\VC\TOOLS\MSVC\14.11.25503\INCLUDE\TYPE_TRAITS
C:\PROGRAM FILES (X86)\WINDOWS KITS\10\INCLUDE\10.0.16299.0\UCRT\MALLOC.H
E:\PROGRAMS\VISUAL-STUDIO\VC\TOOLS\MSVC\14.11.25503\INCLUDE\VCRUNTIME_EXCEPTION.H
E:\PROGRAMS\VISUAL-STUDIO\VC\TOOLS\MSVC\14.11.25503\INCLUDE\EH.H
C:\PROGRAM FILES (X86)\WINDOWS KITS\10\INCLUDE\10.0.16299.0\UCRT\CORECRT_TERMINATE.H
E:\PROGRAMS\VISUAL-STUDIO\VC\TOOLS\MSVC\14.11.25503\INCLUDE\VCRUNTIME_NEW.H
E:\PROGRAMS\VISUAL-STUDIO\VC\TOOLS\MSVC\14.11.25503\INCLUDE\XUTILITY
E:\PROGRAMS\VISUAL-STUDIO\VC\TOOLS\MSVC\14.11.25503\INCLUDE\UTILITY
E:\PROGRAMS\VISUAL-STUDIO\VC\TOOLS\MSVC\14.11.25503\INCLUDE\IOSFWD
E:\PROGRAMS\VISUAL-STUDIO\VC\TOOLS\MSVC\14.11.25503\INCLUDE\CSTDIO
C:\PROGRAM FILES (X86)\WINDOWS KITS\10\INCLUDE\10.0.16299.0\UCRT\STDIO.H
E:\PROGRAMS\VISUAL-STUDIO\VC\TOOLS\MSVC\14.11.25503\INCLUDE\CSTRING
C:\PROGRAM FILES (X86)\WINDOWS KITS\10\INCLUDE\10.0.16299.0\UCRT\STRING.H
C:\PROGRAM FILES (X86)\WINDOWS KITS\10\INCLUDE\10.0.16299.0\UCRT\CORECRT_MEMORY.H
C:\PROGRAM FILES (X86)\WINDOWS KITS\10\INCLUDE\10.0.16299.0\UCRT\CRTDBG.H
E:\PROGRAMS\VISUAL-STUDIO\VC\TOOLS\MSVC\14.11.25503\INCLUDE\VCRUNTIME_NEW_DEBUG.H
E:\PROGRAMS\VISUAL-STUDIO\VC\TOOLS\MSVC\14.11.25503\INCLUDE\XATOMIC0.H
E:\PROGRAMS\VISUAL-STUDIO\VC\TOOLS\MSVC\14.11.25503\INCLUDE\INTRIN0.H
E:\PROGRAMS\VISUAL-STUDIO\VC\TOOLS\MSVC\14.11.25503\INCLUDE\STDEXCEPT
E:\PROGRAMS\VISUAL-STUDIO\VC\TOOLS\MSVC\14.11.25503\INCLUDE\XSTRING
E:\PROGRAMS\VISUAL-STUDIO\VC\TOOLS\MSVC\14.11.25503\INCLUDE\STRING
E:\PROGRAMS\VISUAL-STUDIO\VC\TOOLS\MSVC\14.11.25503\INCLUDE\ISTREAM
E:\PROGRAMS\VISUAL-STUDIO\VC\TOOLS\MSVC\14.11.25503\INCLUDE\OSTREAM
E:\PROGRAMS\VISUAL-STUDIO\VC\TOOLS\MSVC\14.11.25503\INCLUDE\IOS
E:\PROGRAMS\VISUAL-STUDIO\VC\TOOLS\MSVC\14.11.25503\INCLUDE\XLOCNUM
E:\PROGRAMS\VISUAL-STUDIO\VC\TOOLS\MSVC\14.11.25503\INCLUDE\STREAMBUF
E:\PROGRAMS\VISUAL-STUDIO\VC\TOOLS\MSVC\14.11.25503\INCLUDE\XIOSBASE
E:\PROGRAMS\VISUAL-STUDIO\VC\TOOLS\MSVC\14.11.25503\INCLUDE\XLOCALE
E:\PROGRAMS\VISUAL-STUDIO\VC\TOOLS\MSVC\14.11.25503\INCLUDE\TYPEINFO
E:\PROGRAMS\VISUAL-STUDIO\VC\TOOLS\MSVC\14.11.25503\INCLUDE\VCRUNTIME_TYPEINFO.H
E:\PROGRAMS\VISUAL-STUDIO\VC\TOOLS\MSVC\14.11.25503\INCLUDE\XLOCINFO
E:\PROGRAMS\VISUAL-STUDIO\VC\TOOLS\MSVC\14.11.25503\INCLUDE\XLOCINFO.H
C:\PROGRAM FILES (X86)\WINDOWS KITS\10\INCLUDE\10.0.16299.0\UCRT\CTYPE.H
C:\PROGRAM FILES (X86)\WINDOWS KITS\10\INCLUDE\10.0.16299.0\UCRT\LOCALE.H
E:\PROGRAMS\VISUAL-STUDIO\VC\TOOLS\MSVC\14.11.25503\INCLUDE\XFACET
E:\PROGRAMS\VISUAL-STUDIO\VC\TOOLS\MSVC\14.11.25503\INCLUDE\SYSTEM_ERROR
E:\PROGRAMS\VISUAL-STUDIO\VC\TOOLS\MSVC\14.11.25503\INCLUDE\CERRNO
E:\PROGRAMS\VISUAL-STUDIO\VC\TOOLS\MSVC\14.11.25503\INCLUDE\XCALL_ONCE.H
C:\PROGRAM FILES (X86)\WINDOWS KITS\10\INCLUDE\10.0.16299.0\UCRT\SHARE.H
E:\PROGRAMS\VISUAL-STUDIO\VC\TOOLS\MSVC\14.11.25503\INCLUDE\XSTRING_INSERT.H
E:\CONSOLE-RPG\CONSOLE-RPG\CONSOLE-RPG\CONSOLE-RPG\ZOMBIE.H
E:\CONSOLE-RPG\CONSOLE-RPG\CONSOLE-RPG\CONSOLE-RPG\MONSTER.H
C:\PROGRAM FILES (X86)\WINDOWS KITS\10\INCLUDE\10.0.16299.0\UCRT\TIME.H
E:\CONSOLE-RPG\CONSOLE-RPG\CONSOLE-RPG\CONSOLE-RPG\SKELETON.H
E:\PROGRAMS\VISUAL-STUDIO\VC\TOOLS\MSVC\14.11.25503\INCLUDE\FSTREAM
E:\PROGRAMS\VISUAL-STUDIO\VC\TOOLS\MSVC\14.11.25503\INCLUDE\IOSTREAM
E:\PROGRAMS\VISUAL-STUDIO\VC\TOOLS\MSVC\14.11.25503\INCLUDE\RANDOM
E:\PROGRAMS\VISUAL-STUDIO\VC\TOOLS\MSVC\14.11.25503\INCLUDE\ALGORITHM
C:\WINDOWS\GLOBALIZATION\SORTING\SORTDEFAULT.NLS
E:\PROGRAMS\VISUAL-STUDIO\VC\TOOLS\MSVC\14.11.25503\BIN\HOSTX86\X86\1033\CLUI.DLL
E:\PROGRAMS\VISUAL-STUDIO\VC\TOOLS\MSVC\14.11.25503\BIN\HOSTX86\X86\MSPDBSRV.EXE
C:\WINDOWS\SYSTEM32\TZRES.DLL
